section_3/cpu.vcd
$date
	Tue Jan 17 16:13:12 2023
$end
$version
	Icarus Verilog
$end
$timescale
	1ps
$end
$scope module cpuTB $end
$var reg 1 ! clk $end
$var reg 1 " reset $end
$scope module arm7tdmi $end
$var wire 1 ! clk $end
$var wire 1 " reset $end
$var wire 32 # writebackbuffer [31:0] $end
$var wire 32 $ rs2 [31:0] $end
$var wire 32 % rs1 [31:0] $end
$var wire 32 & pcout [31:0] $end
$var wire 32 ' pcmuxout [31:0] $end
$var wire 32 ( memout [31:0] $end
$var wire 32 ) memorybuffer2 [31:0] $end
$var wire 32 * memorybuffer1 [31:0] $end
$var wire 32 + memmuxout [31:0] $end
$var wire 32 , incrout [31:0] $end
$var wire 32 - imemout [31:0] $end
$var wire 32 . executebuffer3 [31:0] $end
$var wire 32 / executebuffer2 [31:0] $end
$var wire 32 0 executebuffer1 [31:0] $end
$var wire 32 1 decodebuffer [31:0] $end
$var wire 5 2 c_rs2 [4:0] $end
$var wire 5 3 c_rs1 [4:0] $end
$var wire 1 4 c_regwrite $end
$var wire 5 5 c_rd [4:0] $end
$var wire 2 6 c_pcsel [1:0] $end
$var wire 7 7 c_opcode [6:0] $end
$var wire 1 8 c_memwrite $end
$var wire 1 9 c_memsel $end
$var wire 32 : c_imm [31:0] $end
$var wire 7 ; c_funct7 [6:0] $end
$var wire 3 < c_funct3 [2:0] $end
$var wire 1 = c_alu2sel $end
$var wire 1 > c_alu1sel $end
$var wire 32 ? aluout [31:0] $end
$var wire 32 @ alu2muxout [31:0] $end
$var wire 32 A alu1muxout [31:0] $end
$var wire 32 B addrout [31:0] $end
$scope module alu1MultiplexerModule $end
$var wire 1 > sel $end
$var wire 32 C in2 [31:0] $end
$var wire 32 D in1 [31:0] $end
$var reg 32 E out [31:0] $end
$upscope $end
$scope module alu2MultiplexerModule $end
$var wire 1 = sel $end
$var wire 32 F in2 [31:0] $end
$var wire 32 G in1 [31:0] $end
$var reg 32 H out [31:0] $end
$upscope $end
$scope module aluModule $end
$var wire 7 I opcode [6:0] $end
$var wire 32 J in2 [31:0] $end
$var wire 32 K in1 [31:0] $end
$var wire 7 L funct7 [6:0] $end
$var wire 3 M funct3 [2:0] $end
$var reg 32 N out [31:0] $end
$upscope $end
$scope module datamemoryModule $end
$var wire 1 ! clk $end
$var wire 32 O dataout [31:0] $end
$var wire 1 8 memwrite $end
$var wire 32 P datain [31:0] $end
$var wire 32 Q address [31:0] $end
$var reg 32 R buffer [31:0] $end
$upscope $end
$scope module decodeBufferModule $end
$var wire 1 ! clk $end
$var wire 32 S out [31:0] $end
$var wire 32 T in [31:0] $end
$var reg 32 U buffer [31:0] $end
$upscope $end
$scope module executeBuffer1Module $end
$var wire 1 ! clk $end
$var wire 32 V in [31:0] $end
$var wire 32 W out [31:0] $end
$var reg 32 X buffer [31:0] $end
$upscope $end
$scope module executeBuffer2Module $end
$var wire 1 ! clk $end
$var wire 32 Y in [31:0] $end
$var wire 32 Z out [31:0] $end
$var reg 32 [ buffer [31:0] $end
$upscope $end
$scope module executeBuffer3Module $end
$var wire 1 ! clk $end
$var wire 32 \ out [31:0] $end
$var wire 32 ] in [31:0] $end
$var reg 32 ^ buffer [31:0] $end
$upscope $end
$scope module instructionDecoderModule $end
$var wire 32 _ ins [31:0] $end
$var reg 1 > alu1sel $end
$var reg 1 = alu2sel $end
$var reg 3 ` funct3 [2:0] $end
$var reg 7 a funct7 [6:0] $end
$var reg 32 b imm [31:0] $end
$var reg 1 9 memsel $end
$var reg 1 8 memwrite $end
$var reg 7 c opcode [6:0] $end
$var reg 2 d pcsel [1:0] $end
$var reg 5 e rd [4:0] $end
$var reg 1 4 regwrite $end
$var reg 5 f rs1 [4:0] $end
$var reg 5 g rs2 [4:0] $end
$upscope $end
$scope module instructionMemoryModule $end
$var wire 32 h instruction [31:0] $end
$var wire 32 i address [31:0] $end
$var integer 32 j i [31:0] $end
$upscope $end
$scope module memMultiplexerModule $end
$var wire 32 k in1 [31:0] $end
$var wire 1 9 sel $end
$var wire 32 l in2 [31:0] $end
$var reg 32 m out [31:0] $end
$upscope $end
$scope module memoryBuffer1Module $end
$var wire 1 ! clk $end
$var wire 32 n in [31:0] $end
$var wire 32 o out [31:0] $end
$var reg 32 p buffer [31:0] $end
$upscope $end
$scope module memoryBuffer2Module $end
$var wire 1 ! clk $end
$var wire 32 q in [31:0] $end
$var wire 32 r out [31:0] $end
$var reg 32 s buffer [31:0] $end
$upscope $end
$scope module pcAdderModule $end
$var wire 32 t in2 [31:0] $end
$var wire 32 u out [31:0] $end
$var wire 32 v in1 [31:0] $end
$upscope $end
$scope module pcIncrementerModule $end
$var wire 32 w in1 [31:0] $end
$var wire 32 x out [31:0] $end
$var wire 32 y in2 [31:0] $end
$upscope $end
$scope module pcMultiplexerModule $end
$var wire 32 z in1 [31:0] $end
$var wire 32 { in2 [31:0] $end
$var wire 32 | in3 [31:0] $end
$var wire 32 } in4 [31:0] $end
$var wire 2 ~ sel [1:0] $end
$var reg 32 !" out [31:0] $end
$upscope $end
$scope module pcRegisterModule $end
$var wire 1 ! clk $end
$var wire 32 "" in [31:0] $end
$var wire 1 " reset $end
$var wire 32 #" out [31:0] $end
$var reg 32 $" pc [31:0] $end
$var integer 32 %" i [31:0] $end
$upscope $end
$scope module registerBankModule $end
$var wire 1 ! clk $end
$var wire 5 &" rdaddr [4:0] $end
$var wire 1 4 regwrite $end
$var wire 32 '" rs1 [31:0] $end
$var wire 5 (" rs1addr [4:0] $end
$var wire 32 )" rs2 [31:0] $end
$var wire 5 *" rs2addr [4:0] $end
$var wire 32 +" rddata [31:0] $end
$var reg 32 ," reg0 [31:0] $end
$var reg 32 -" reg1 [31:0] $end
$var reg 32 ." reg10 [31:0] $end
$var reg 32 /" reg11 [31:0] $end
$var reg 32 0" reg12 [31:0] $end
$var reg 32 1" reg13 [31:0] $end
$var reg 32 2" reg14 [31:0] $end
$var reg 32 3" reg15 [31:0] $end
$var reg 32 4" reg16 [31:0] $end
$var reg 32 5" reg17 [31:0] $end
$var reg 32 6" reg18 [31:0] $end
$var reg 32 7" reg19 [31:0] $end
$var reg 32 8" reg2 [31:0] $end
$var reg 32 9" reg20 [31:0] $end
$var reg 32 :" reg21 [31:0] $end
$var reg 32 ;" reg22 [31:0] $end
$var reg 32 <" reg23 [31:0] $end
$var reg 32 =" reg24 [31:0] $end
$var reg 32 >" reg25 [31:0] $end
$var reg 32 ?" reg26 [31:0] $end
$var reg 32 @" reg27 [31:0] $end
$var reg 32 A" reg28 [31:0] $end
$var reg 32 B" reg29 [31:0] $end
$var reg 32 C" reg3 [31:0] $end
$var reg 32 D" reg30 [31:0] $end
$var reg 32 E" reg31 [31:0] $end
$var reg 32 F" reg4 [31:0] $end
$var reg 32 G" reg5 [31:0] $end
$var reg 32 H" reg6 [31:0] $end
$var reg 32 I" reg7 [31:0] $end
$var reg 32 J" reg8 [31:0] $end
$var reg 32 K" reg9 [31:0] $end
$upscope $end
$scope module writebackBufferModule $end
$var wire 1 ! clk $end
$var wire 32 L" in [31:0] $end
$var wire 32 M" out [31:0] $end
$var reg 32 N" buffer [31:0] $end
$upscope $end
$upscope $end
$upscope $end
$scope module signExtend $end
$var wire 32 O" immSel [31:0] $end
$var wire 32 P" in [31:0] $end
$var wire 32 Q" out [31:0] $end
$upscope $end
$enddefinitions $end
#0
$dumpvars
bz Q"
bz P"
bz O"
bx N"
bx M"
bx L"
bx K"
bx J"
bx I"
bx H"
bx G"
bx F"
bx E"
bx D"
bx C"
bx B"
bx A"
bx @"
bx ?"
bx >"
bx ="
bx <"
bx ;"
bx :"
bx 9"
bx 8"
bx 7"
bx 6"
bx 5"
bx 4"
bx 3"
bx 2"
bx 1"
bx 0"
bx /"
bx ."
bx -"
b0 ,"
bx +"
bx *"
bx )"
bx ("
bx '"
bx &"
b0 %"
b0 $"
b0 #"
b100 ""
b100 !"
bx ~
bz }
bz |
bx {
b100 z
b0 y
b100 x
b100 w
b0 v
bx u
bx t
bx s
bx r
bx q
bx p
bx o
bx n
bx m
bx l
bx k
b100000000 j
b0 i
b100100000000000000001101111 h
bx g
bx f
bx e
bx d
bx c
bx b
bx a
bx `
bx _
bx ^
bx ]
bx \
bx [
bx Z
bx Y
bx X
bx W
bx V
bx U
b100100000000000000001101111 T
bx S
bx R
bx Q
bx P
bx O
bx N
bx M
bx L
bx K
bx J
bx I
bx H
bx G
bx F
bx E
bx D
b0 C
bx B
bx A
bx @
bx ?
x>
x=
bx <
bx ;
bx :
x9
x8
bx 7
bx 6
bx 5
x4
bx 3
bx 2
bx 1
bx 0
bx /
bx .
b100100000000000000001101111 -
b100 ,
bx +
bx *
bx )
bx (
b100 '
b0 &
bx %
bx $
bx #
1"
0!
$end
#10000
b1001000 '
b1001000 !"
b1001000 ""
b1001000 B
b1001000 u
b1001000 {
b1001000 :
b1001000 F
b1001000 b
b1001000 t
b0 5
b0 e
b0 &"
04
09
0=
0>
b1 6
b1 d
b1 ~
b10 ;
b10 L
b10 a
b0 <
b0 M
b0 `
b1101111 7
b1101111 I
b1101111 c
b100100000000000000001101111 1
b100100000000000000001101111 S
b100100000000000000001101111 _
b100100000000000000001101111 U
b1 %"
1!
#20000
0!
0"
#30000
b10 %"
1!
#40000
0!
#50000
b11 %"
1!
#60000
0!
#70000
b100 %"
1!
#80000
0!
#90000
b11011000 '
b11011000 !"
b11011000 ""
b1001100 ,
b1001100 x
b1001100 z
b10010000 B
b10010000 u
b10010000 {
b10010011 -
b10010011 T
b10010011 h
b1001000 &
b1001000 C
b1001000 i
b1001000 v
b1001000 y
b1001000 #"
b1001000 $"
b101 %"
1!
#100000
0!
#110000
b0 @
b0 H
b0 Y
b0 A
b0 E
b0 V
b1001100 '
b1001100 !"
b1001100 ""
14
19
1=
b1001000 B
b1001000 u
b1001000 {
b0 :
b0 F
b0 b
b0 t
b0 %
b0 D
b0 '"
b0 3
b0 f
b0 ("
b1 5
b1 e
b1 &"
b0 6
b0 d
b0 ~
b0 ;
b0 L
b0 a
b10011 7
b10011 I
b10011 c
b10010011 1
b10010011 S
b10010011 _
b10010011 U
b110 %"
1!
#120000
0!
#130000
b0 ?
b0 N
b0 n
b0 0
b0 K
b0 W
b0 X
b0 /
b0 J
b0 Z
b0 [
b111 %"
1!
#140000
0!
#150000
b0 +
b0 m
b0 L"
b0 *
b0 Q
b0 l
b0 o
b0 p
b1000 %"
1!
#160000
0!
#170000
b0 #
b0 +"
b0 M"
b0 N"
b1001 %"
1!
#180000
0!
#190000
b0 -"
b1010000 '
b1010000 !"
b1010000 ""
b1010000 ,
b1010000 x
b1010000 z
b1001100 B
b1001100 u
b1001100 {
b100010011 -
b100010011 T
b100010011 h
b1001100 &
b1001100 C
b1001100 i
b1001100 v
b1001100 y
b1001100 #"
b1001100 $"
b1010 %"
1!
#200000
0!
#210000
b10 5
b10 e
b10 &"
14
19
1=
b100010011 1
b100010011 S
b100010011 _
b100010011 U
b1011 %"
1!
#220000
0!
#230000
b0 8"
b1100 %"
1!
#240000
0!
#250000
b1101 %"
1!
#260000
0!
#270000
b1110 %"
1!
#280000
0!
#290000
b1010100 '
b1010100 !"
b1010100 ""
b1010100 ,
b1010100 x
b1010100 z
b1010000 B
b1010000 u
b1010000 {
b110010011 -
b110010011 T
b110010011 h
b1010000 &
b1010000 C
b1010000 i
b1010000 v
b1010000 y
b1010000 #"
b1010000 $"
b1111 %"
1!
#300000
0!
#310000
b11 5
b11 e
b11 &"
14
19
1=
b110010011 1
b110010011 S
b110010011 _
b110010011 U
b10000 %"
1!
#320000
0!
#330000
b0 C"
b10001 %"
1!
#340000
0!
#350000
b10010 %"
1!
#360000
0!
#370000
b10011 %"
1!
#380000
0!
#390000
b1011000 '
b1011000 !"
b1011000 ""
b1011000 ,
b1011000 x
b1011000 z
b1010100 B
b1010100 u
b1010100 {
b1000010011 -
b1000010011 T
b1000010011 h
b1010100 &
b1010100 C
b1010100 i
b1010100 v
b1010100 y
b1010100 #"
b1010100 $"
b10100 %"
1!
#400000
0!
#410000
b100 5
b100 e
b100 &"
14
19
1=
b1000010011 1
b1000010011 S
b1000010011 _
b1000010011 U
b10101 %"
1!
#420000
0!
#430000
b0 F"
b10110 %"
1!
#440000
0!
#450000
b10111 %"
1!
#460000
0!
#470000
b11000 %"
1!
#480000
0!
#490000
b1011100 '
b1011100 !"
b1011100 ""
b1011100 ,
b1011100 x
b1011100 z
b1011000 B
b1011000 u
b1011000 {
b1010010011 -
b1010010011 T
b1010010011 h
b1011000 &
b1011000 C
b1011000 i
b1011000 v
b1011000 y
b1011000 #"
b1011000 $"
b11001 %"
1!
#500000
0!
#510000
b101 5
b101 e
b101 &"
14
19
1=
b1010010011 1
b1010010011 S
b1010010011 _
b1010010011 U
b11010 %"
1!
#520000
0!
#530000
b0 G"
b11011 %"
1!
#540000
0!
#550000
b11100 %"
1!
#560000
0!
#570000
b11101 %"
1!
#580000
0!
#590000
b1100000 '
b1100000 !"
b1100000 ""
b1100000 ,
b1100000 x
b1100000 z
b1011100 B
b1011100 u
b1011100 {
b1100010011 -
b1100010011 T
b1100010011 h
b1011100 &
b1011100 C
b1011100 i
b1011100 v
b1011100 y
b1011100 #"
b1011100 $"
b11110 %"
1!
#600000
0!
#610000
b110 5
b110 e
b110 &"
14
19
1=
b1100010011 1
b1100010011 S
b1100010011 _
b1100010011 U
b11111 %"
1!
#620000
0!
#630000
b0 H"
b100000 %"
1!
#640000
0!
#650000
b100001 %"
1!
#660000
0!
#670000
b100010 %"
1!
#680000
0!
#690000
b1100100 '
b1100100 !"
b1100100 ""
b1100100 ,
b1100100 x
b1100100 z
b1100000 B
b1100000 u
b1100000 {
b1110010011 -
b1110010011 T
b1110010011 h
b1100000 &
b1100000 C
b1100000 i
b1100000 v
b1100000 y
b1100000 #"
b1100000 $"
b100011 %"
1!
#700000
0!
#710000
b111 5
b111 e
b111 &"
14
19
1=
b1110010011 1
b1110010011 S
b1110010011 _
b1110010011 U
b100100 %"
1!
#720000
0!
#730000
b0 I"
b100101 %"
1!
#740000
0!
#750000
b100110 %"
1!
#760000
0!
#770000
b100111 %"
1!
#780000
0!
#790000
b1101000 '
b1101000 !"
b1101000 ""
b1101000 ,
b1101000 x
b1101000 z
b1100100 B
b1100100 u
b1100100 {
b10000010011 -
b10000010011 T
b10000010011 h
b1100100 &
b1100100 C
b1100100 i
b1100100 v
b1100100 y
b1100100 #"
b1100100 $"
b101000 %"
1!
#800000
0!
#810000
b1000 5
b1000 e
b1000 &"
14
19
1=
b10000010011 1
b10000010011 S
b10000010011 _
b10000010011 U
b101001 %"
1!
#820000
0!
#830000
b0 J"
b101010 %"
1!
#840000
0!
#850000
b101011 %"
1!
#860000
0!
#870000
b101100 %"
1!
#880000
0!
#890000
b1101100 '
b1101100 !"
b1101100 ""
b1101100 ,
b1101100 x
b1101100 z
b1101000 B
b1101000 u
b1101000 {
b10010010011 -
b10010010011 T
b10010010011 h
b1101000 &
b1101000 C
b1101000 i
b1101000 v
b1101000 y
b1101000 #"
b1101000 $"
b101101 %"
1!
#900000
0!
#910000
b1001 5
b1001 e
b1001 &"
14
19
1=
b10010010011 1
b10010010011 S
b10010010011 _
b10010010011 U
b101110 %"
1!
#920000
0!
#930000
b0 K"
b101111 %"
1!
#940000
0!
#950000
b110000 %"
1!
#960000
0!
#970000
b110001 %"
1!
#980000
0!
#990000
b1110000 '
b1110000 !"
b1110000 ""
b1110000 ,
b1110000 x
b1110000 z
b1101100 B
b1101100 u
b1101100 {
b10100010011 -
b10100010011 T
b10100010011 h
b1101100 &
b1101100 C
b1101100 i
b1101100 v
b1101100 y
b1101100 #"
b1101100 $"
b110010 %"
1!
#1000000
0!
#1010000
b1010 5
b1010 e
b1010 &"
14
19
1=
b10100010011 1
b10100010011 S
b10100010011 _
b10100010011 U
b110011 %"
1!
#1020000
0!
#1030000
b0 ."
b110100 %"
1!
#1040000
0!
#1050000
b110101 %"
1!
#1060000
0!
#1070000
b110110 %"
1!
#1080000
0!
#1090000
b1110100 '
b1110100 !"
b1110100 ""
b1110100 ,
b1110100 x
b1110100 z
b1110000 B
b1110000 u
b1110000 {
b10110010011 -
b10110010011 T
b10110010011 h
b1110000 &
b1110000 C
b1110000 i
b1110000 v
b1110000 y
b1110000 #"
b1110000 $"
b110111 %"
1!
#1100000
0!
#1110000
b1011 5
b1011 e
b1011 &"
14
19
1=
b10110010011 1
b10110010011 S
b10110010011 _
b10110010011 U
b111000 %"
1!
#1120000
0!
#1130000
b0 /"
b111001 %"
1!
#1140000
0!
#1150000
b111010 %"
1!
#1160000
0!
#1170000
b111011 %"
1!
#1180000
0!
#1190000
b1111000 '
b1111000 !"
b1111000 ""
b1111000 ,
b1111000 x
b1111000 z
b1110100 B
b1110100 u
b1110100 {
b11000010011 -
b11000010011 T
b11000010011 h
b1110100 &
b1110100 C
b1110100 i
b1110100 v
b1110100 y
b1110100 #"
b1110100 $"
b111100 %"
1!
#1200000
0!
#1210000
b1100 5
b1100 e
b1100 &"
14
19
1=
b11000010011 1
b11000010011 S
b11000010011 _
b11000010011 U
b111101 %"
1!
#1220000
0!
#1230000
b0 0"
b111110 %"
1!
#1240000
0!
#1250000
b111111 %"
1!
#1260000
0!
#1270000
b1000000 %"
1!
#1280000
0!
#1290000
b1111100 '
b1111100 !"
b1111100 ""
b1111100 ,
b1111100 x
b1111100 z
b1111000 B
b1111000 u
b1111000 {
b11010010011 -
b11010010011 T
b11010010011 h
b1111000 &
b1111000 C
b1111000 i
b1111000 v
b1111000 y
b1111000 #"
b1111000 $"
b1000001 %"
1!
#1300000
0!
#1310000
b1101 5
b1101 e
b1101 &"
14
19
1=
b11010010011 1
b11010010011 S
b11010010011 _
b11010010011 U
b1000010 %"
1!
#1320000
0!
#1330000
b0 1"
b1000011 %"
1!
#1340000
0!
#1350000
b1000100 %"
1!
#1360000
0!
#1370000
b1000101 %"
1!
#1380000
0!
#1390000
b10000000 '
b10000000 !"
b10000000 ""
b10000000 ,
b10000000 x
b10000000 z
b1111100 B
b1111100 u
b1111100 {
b11100010011 -
b11100010011 T
b11100010011 h
b1111100 &
b1111100 C
b1111100 i
b1111100 v
b1111100 y
b1111100 #"
b1111100 $"
b1000110 %"
1!
#1400000
0!
#1410000
b1110 5
b1110 e
b1110 &"
14
19
1=
b11100010011 1
b11100010011 S
b11100010011 _
b11100010011 U
b1000111 %"
1!
#1420000
0!
#1430000
b0 2"
b1001000 %"
1!
#1440000
0!
#1450000
b1001001 %"
1!
#1460000
0!
#1470000
b1001010 %"
1!
#1480000
0!
#1490000
b10000100 '
b10000100 !"
b10000100 ""
b10000100 ,
b10000100 x
b10000100 z
b10000000 B
b10000000 u
b10000000 {
b11110010011 -
b11110010011 T
b11110010011 h
b10000000 &
b10000000 C
b10000000 i
b10000000 v
b10000000 y
b10000000 #"
b10000000 $"
b1001011 %"
1!
#1500000
0!
#1510000
b1111 5
b1111 e
b1111 &"
14
19
1=
b11110010011 1
b11110010011 S
b11110010011 _
b11110010011 U
b1001100 %"
1!
#1520000
0!
#1530000
b0 3"
b1001101 %"
1!
#1540000
0!
#1550000
b1001110 %"
1!
#1560000
0!
#1570000
b1001111 %"
1!
#1580000
0!
#1590000
b10001000 '
b10001000 !"
b10001000 ""
b10001000 ,
b10001000 x
b10001000 z
b10000100 B
b10000100 u
b10000100 {
b100000010011 -
b100000010011 T
b100000010011 h
b10000100 &
b10000100 C
b10000100 i
b10000100 v
b10000100 y
b10000100 #"
b10000100 $"
b1010000 %"
1!
#1600000
0!
#1610000
b10000 5
b10000 e
b10000 &"
14
19
1=
b100000010011 1
b100000010011 S
b100000010011 _
b100000010011 U
b1010001 %"
1!
#1620000
0!
#1630000
b0 4"
b1010010 %"
1!
#1640000
0!
#1650000
b1010011 %"
1!
#1660000
0!
#1670000
b1010100 %"
1!
#1680000
0!
#1690000
b10001100 '
b10001100 !"
b10001100 ""
b10001100 ,
b10001100 x
b10001100 z
b10001000 B
b10001000 u
b10001000 {
b100010010011 -
b100010010011 T
b100010010011 h
b10001000 &
b10001000 C
b10001000 i
b10001000 v
b10001000 y
b10001000 #"
b10001000 $"
b1010101 %"
1!
#1700000
0!
#1710000
b10001 5
b10001 e
b10001 &"
14
19
1=
b100010010011 1
b100010010011 S
b100010010011 _
b100010010011 U
b1010110 %"
1!
#1720000
0!
#1730000
b0 5"
b1010111 %"
1!
#1740000
0!
#1750000
b1011000 %"
1!
#1760000
0!
#1770000
b1011001 %"
1!
#1780000
0!
#1790000
b10010000 '
b10010000 !"
b10010000 ""
b10010000 ,
b10010000 x
b10010000 z
b10001100 B
b10001100 u
b10001100 {
b100100010011 -
b100100010011 T
b100100010011 h
b10001100 &
b10001100 C
b10001100 i
b10001100 v
b10001100 y
b10001100 #"
b10001100 $"
b1011010 %"
1!
#1800000
0!
#1810000
b10010 5
b10010 e
b10010 &"
14
19
1=
b100100010011 1
b100100010011 S
b100100010011 _
b100100010011 U
b1011011 %"
1!
#1820000
0!
#1830000
b0 6"
b1011100 %"
1!
#1840000
0!
#1850000
b1011101 %"
1!
#1860000
0!
#1870000
b1011110 %"
1!
#1880000
0!
#1890000
b10010100 '
b10010100 !"
b10010100 ""
b10010100 ,
b10010100 x
b10010100 z
b10010000 B
b10010000 u
b10010000 {
b100110010011 -
b100110010011 T
b100110010011 h
b10010000 &
b10010000 C
b10010000 i
b10010000 v
b10010000 y
b10010000 #"
b10010000 $"
b1011111 %"
1!
#1900000
0!
#1910000
b10011 5
b10011 e
b10011 &"
14
19
1=
b100110010011 1
b100110010011 S
b100110010011 _
b100110010011 U
b1100000 %"
1!
#1920000
0!
#1930000
b0 7"
b1100001 %"
1!
#1940000
0!
#1950000
b1100010 %"
1!
#1960000
0!
#1970000
b1100011 %"
1!
#1980000
0!
#1990000
b10011000 '
b10011000 !"
b10011000 ""
b10011000 ,
b10011000 x
b10011000 z
b10010100 B
b10010100 u
b10010100 {
b101000010011 -
b101000010011 T
b101000010011 h
b10010100 &
b10010100 C
b10010100 i
b10010100 v
b10010100 y
b10010100 #"
b10010100 $"
b1100100 %"
1!
#2000000
0!
#2010000
b10100 5
b10100 e
b10100 &"
14
19
1=
b101000010011 1
b101000010011 S
b101000010011 _
b101000010011 U
b1100101 %"
1!
#2020000
0!
#2030000
b0 9"
b1100110 %"
1!
#2040000
0!
#2050000
b1100111 %"
1!
#2060000
0!
#2070000
b1101000 %"
1!
#2080000
0!
#2090000
b10011100 '
b10011100 !"
b10011100 ""
b10011100 ,
b10011100 x
b10011100 z
b10011000 B
b10011000 u
b10011000 {
b101010010011 -
b101010010011 T
b101010010011 h
b10011000 &
b10011000 C
b10011000 i
b10011000 v
b10011000 y
b10011000 #"
b10011000 $"
b1101001 %"
1!
#2100000
0!
#2110000
b10101 5
b10101 e
b10101 &"
14
19
1=
b101010010011 1
b101010010011 S
b101010010011 _
b101010010011 U
b1101010 %"
1!
#2120000
0!
#2130000
b0 :"
b1101011 %"
1!
#2140000
0!
#2150000
b1101100 %"
1!
#2160000
0!
#2170000
b1101101 %"
1!
#2180000
0!
#2190000
b10100000 '
b10100000 !"
b10100000 ""
b10100000 ,
b10100000 x
b10100000 z
b10011100 B
b10011100 u
b10011100 {
b101100010011 -
b101100010011 T
b101100010011 h
b10011100 &
b10011100 C
b10011100 i
b10011100 v
b10011100 y
b10011100 #"
b10011100 $"
b1101110 %"
1!
#2200000
0!
#2210000
b10110 5
b10110 e
b10110 &"
14
19
1=
b101100010011 1
b101100010011 S
b101100010011 _
b101100010011 U
b1101111 %"
1!
#2220000
0!
#2230000
b0 ;"
b1110000 %"
1!
#2240000
0!
#2250000
b1110001 %"
1!
#2260000
0!
#2270000
b1110010 %"
1!
#2280000
0!
#2290000
b10100100 '
b10100100 !"
b10100100 ""
b10100100 ,
b10100100 x
b10100100 z
b10100000 B
b10100000 u
b10100000 {
b101110010011 -
b101110010011 T
b101110010011 h
b10100000 &
b10100000 C
b10100000 i
b10100000 v
b10100000 y
b10100000 #"
b10100000 $"
b1110011 %"
1!
#2300000
0!
#2310000
b10111 5
b10111 e
b10111 &"
14
19
1=
b101110010011 1
b101110010011 S
b101110010011 _
b101110010011 U
b1110100 %"
1!
#2320000
0!
#2330000
b0 <"
b1110101 %"
1!
#2340000
0!
#2350000
b1110110 %"
1!
#2360000
0!
#2370000
b1110111 %"
1!
#2380000
0!
#2390000
b10101000 '
b10101000 !"
b10101000 ""
b10101000 ,
b10101000 x
b10101000 z
b10100100 B
b10100100 u
b10100100 {
b110000010011 -
b110000010011 T
b110000010011 h
b10100100 &
b10100100 C
b10100100 i
b10100100 v
b10100100 y
b10100100 #"
b10100100 $"
b1111000 %"
1!
#2400000
0!
#2410000
b11000 5
b11000 e
b11000 &"
14
19
1=
b110000010011 1
b110000010011 S
b110000010011 _
b110000010011 U
b1111001 %"
1!
#2420000
0!
#2430000
b0 ="
b1111010 %"
1!
#2440000
0!
#2450000
b1111011 %"
1!
#2460000
0!
#2470000
b1111100 %"
1!
#2480000
0!
#2490000
b10101100 '
b10101100 !"
b10101100 ""
b10101100 ,
b10101100 x
b10101100 z
b10101000 B
b10101000 u
b10101000 {
b110010010011 -
b110010010011 T
b110010010011 h
b10101000 &
b10101000 C
b10101000 i
b10101000 v
b10101000 y
b10101000 #"
b10101000 $"
b1111101 %"
1!
#2500000
0!
#2510000
b11001 5
b11001 e
b11001 &"
14
19
1=
b110010010011 1
b110010010011 S
b110010010011 _
b110010010011 U
b1111110 %"
1!
#2520000
0!
#2530000
b0 >"
b1111111 %"
1!
#2540000
0!
#2550000
b10000000 %"
1!
#2560000
0!
#2570000
b10000001 %"
1!
#2580000
0!
#2590000
b10110000 '
b10110000 !"
b10110000 ""
b10110000 ,
b10110000 x
b10110000 z
b10101100 B
b10101100 u
b10101100 {
b110100010011 -
b110100010011 T
b110100010011 h
b10101100 &
b10101100 C
b10101100 i
b10101100 v
b10101100 y
b10101100 #"
b10101100 $"
b10000010 %"
1!
#2600000
0!
#2610000
b11010 5
b11010 e
b11010 &"
14
19
1=
b110100010011 1
b110100010011 S
b110100010011 _
b110100010011 U
b10000011 %"
1!
#2620000
0!
#2630000
b0 ?"
b10000100 %"
1!
#2640000
0!
#2650000
b10000101 %"
1!
#2660000
0!
#2670000
b10000110 %"
1!
#2680000
0!
#2690000
b10110100 '
b10110100 !"
b10110100 ""
b10110100 ,
b10110100 x
b10110100 z
b10110000 B
b10110000 u
b10110000 {
b110110010011 -
b110110010011 T
b110110010011 h
b10110000 &
b10110000 C
b10110000 i
b10110000 v
b10110000 y
b10110000 #"
b10110000 $"
b10000111 %"
1!
#2700000
0!
#2710000
b11011 5
b11011 e
b11011 &"
14
19
1=
b110110010011 1
b110110010011 S
b110110010011 _
b110110010011 U
b10001000 %"
1!
#2720000
0!
#2730000
b0 @"
b10001001 %"
1!
#2740000
0!
#2750000
b10001010 %"
1!
#2760000
0!
#2770000
b10001011 %"
1!
#2780000
0!
#2790000
b10111000 '
b10111000 !"
b10111000 ""
b10111000 ,
b10111000 x
b10111000 z
b10110100 B
b10110100 u
b10110100 {
b111000010011 -
b111000010011 T
b111000010011 h
b10110100 &
b10110100 C
b10110100 i
b10110100 v
b10110100 y
b10110100 #"
b10110100 $"
b10001100 %"
1!
#2800000
0!
#2810000
b11100 5
b11100 e
b11100 &"
14
19
1=
b111000010011 1
b111000010011 S
b111000010011 _
b111000010011 U
b10001101 %"
1!
#2820000
0!
#2830000
b0 A"
b10001110 %"
1!
#2840000
0!
#2850000
b10001111 %"
1!
#2860000
0!
#2870000
b10010000 %"
1!
#2880000
0!
#2890000
b10111100 '
b10111100 !"
b10111100 ""
b10111100 ,
b10111100 x
b10111100 z
b10111000 B
b10111000 u
b10111000 {
b111010010011 -
b111010010011 T
b111010010011 h
b10111000 &
b10111000 C
b10111000 i
b10111000 v
b10111000 y
b10111000 #"
b10111000 $"
b10010001 %"
1!
#2900000
0!
#2910000
b11101 5
b11101 e
b11101 &"
14
19
1=
b111010010011 1
b111010010011 S
b111010010011 _
b111010010011 U
b10010010 %"
1!
#2920000
0!
#2930000
b0 B"
b10010011 %"
1!
#2940000
0!
#2950000
b10010100 %"
1!
#2960000
0!
#2970000
b10010101 %"
1!
#2980000
0!
#2990000
b11000000 '
b11000000 !"
b11000000 ""
b11000000 ,
b11000000 x
b11000000 z
b10111100 B
b10111100 u
b10111100 {
b111100010011 -
b111100010011 T
b111100010011 h
b10111100 &
b10111100 C
b10111100 i
b10111100 v
b10111100 y
b10111100 #"
b10111100 $"
b10010110 %"
1!
#3000000
0!
#3010000
b11110 5
b11110 e
b11110 &"
14
19
1=
b111100010011 1
b111100010011 S
b111100010011 _
b111100010011 U
b10010111 %"
1!
#3020000
0!
#3030000
b0 D"
b10011000 %"
1!
#3040000
0!
#3050000
b10011001 %"
1!
#3060000
0!
#3070000
b10011010 %"
1!
#3080000
0!
#3090000
b11000100 '
b11000100 !"
b11000100 ""
b11000100 ,
b11000100 x
b11000100 z
b11000000 B
b11000000 u
b11000000 {
b111110010011 -
b111110010011 T
b111110010011 h
b11000000 &
b11000000 C
b11000000 i
b11000000 v
b11000000 y
b11000000 #"
b11000000 $"
b10011011 %"
1!
#3100000
0!
#3110000
b11111 5
b11111 e
b11111 &"
14
19
1=
b111110010011 1
b111110010011 S
b111110010011 _
b111110010011 U
b10011100 %"
1!
#3120000
0!
#3130000
b0 E"
b10011101 %"
1!
#3140000
0!
#3150000
b10011110 %"
1!
#3160000
0!
#3170000
b10011111 %"
1!
#3180000
0!
