section_3/cpu.vcd
$date
	Fri Jan 20 16:26:38 2023
$end
$version
	Icarus Verilog
$end
$timescale
	1ps
$end
$scope module cpuTB $end
$var reg 1 ! clk $end
$var reg 1 " reset $end
$scope module riscv $end
$var wire 5 # c_shamt [4:0] $end
$var wire 1 ! clk $end
$var wire 1 " reset $end
$var wire 1 $ zero $end
$var wire 32 % wbuff [31:0] $end
$var wire 32 & rs2 [31:0] $end
$var wire 32 ' rs1 [31:0] $end
$var wire 32 ( pcmux [31:0] $end
$var wire 32 ) pc [31:0] $end
$var wire 32 * memmux [31:0] $end
$var wire 32 + mbuff3 [31:0] $end
$var wire 32 , mbuff2 [31:0] $end
$var wire 32 - mbuff1 [31:0] $end
$var wire 32 . ir4 [31:0] $end
$var wire 32 / ir3 [31:0] $end
$var wire 32 0 ir2 [31:0] $end
$var wire 32 1 ir1 [31:0] $end
$var wire 32 2 incr [31:0] $end
$var wire 32 3 imem [31:0] $end
$var wire 32 4 ebuff5 [31:0] $end
$var wire 32 5 ebuff4 [31:0] $end
$var wire 32 6 ebuff3 [31:0] $end
$var wire 32 7 ebuff2 [31:0] $end
$var wire 32 8 ebuff1 [31:0] $end
$var wire 32 9 dmem [31:0] $end
$var wire 32 : dbuff [31:0] $end
$var wire 1 ; c_shmat $end
$var wire 5 < c_rs2 [4:0] $end
$var wire 5 = c_rs1 [4:0] $end
$var wire 1 > c_regwrite $end
$var wire 5 ? c_rd [4:0] $end
$var wire 7 @ c_opcode [6:0] $end
$var wire 1 A c_memwrite $end
$var wire 2 B c_memsel [1:0] $end
$var wire 32 C c_imm [31:0] $end
$var wire 7 D c_funct7 [6:0] $end
$var wire 3 E c_funct3 [2:0] $end
$var wire 1 F c_alu2sel $end
$var wire 1 G c_alu1sel $end
$var wire 32 H alu2mux [31:0] $end
$var wire 32 I alu1mux [31:0] $end
$var wire 32 J alu [31:0] $end
$var wire 32 K add [31:0] $end
$scope module alu1MultiplexerModule $end
$var wire 1 G sel $end
$var wire 32 L in2 [31:0] $end
$var wire 32 M in1 [31:0] $end
$var reg 32 N out [31:0] $end
$upscope $end
$scope module alu2MultiplexerModule $end
$var wire 1 F sel $end
$var wire 32 O in2 [31:0] $end
$var wire 32 P in1 [31:0] $end
$var reg 32 Q out [31:0] $end
$upscope $end
$scope module aluModule $end
$var wire 5 R shamt [4:0] $end
$var wire 7 S opcode [6:0] $end
$var wire 32 T in2 [31:0] $end
$var wire 32 U in1 [31:0] $end
$var wire 7 V funct7 [6:0] $end
$var wire 3 W funct3 [2:0] $end
$var reg 32 X out [31:0] $end
$var reg 1 $ zero $end
$upscope $end
$scope module dataMemoryModule $end
$var wire 1 ! clk $end
$var wire 32 Y dataout [31:0] $end
$var wire 1 A memwrite $end
$var wire 32 Z datain [31:0] $end
$var wire 32 [ address [31:0] $end
$var reg 32 \ buffer [31:0] $end
$upscope $end
$scope module decodeBufferMoudle $end
$var wire 1 ! clk $end
$var wire 32 ] out [31:0] $end
$var wire 32 ^ in [31:0] $end
$var reg 32 _ buffer [31:0] $end
$upscope $end
$scope module executeBuffer1Module $end
$var wire 1 ! clk $end
$var wire 32 ` in [31:0] $end
$var wire 32 a out [31:0] $end
$var reg 32 b buffer [31:0] $end
$upscope $end
$scope module executeBuffer2Module $end
$var wire 1 ! clk $end
$var wire 32 c in [31:0] $end
$var wire 32 d out [31:0] $end
$var reg 32 e buffer [31:0] $end
$upscope $end
$scope module executeBuffer3Module $end
$var wire 1 ! clk $end
$var wire 32 f out [31:0] $end
$var wire 32 g in [31:0] $end
$var reg 32 h buffer [31:0] $end
$upscope $end
$scope module executeBuffer4Module $end
$var wire 1 ! clk $end
$var wire 32 i out [31:0] $end
$var wire 32 j in [31:0] $end
$var reg 32 k buffer [31:0] $end
$upscope $end
$scope module executeBuffer5Module $end
$var wire 1 ! clk $end
$var wire 32 l out [31:0] $end
$var wire 32 m in [31:0] $end
$var reg 32 n buffer [31:0] $end
$upscope $end
$scope module instructionMemoryModule $end
$var wire 32 o instruction [31:0] $end
$var wire 32 p address [31:0] $end
$var integer 32 q i [31:0] $end
$upscope $end
$scope module ir1BufferModule $end
$var wire 1 ! clk $end
$var wire 32 r in [31:0] $end
$var wire 32 s out [31:0] $end
$var reg 32 t buffer [31:0] $end
$upscope $end
$scope module ir1ControlModule $end
$var wire 32 u ins [31:0] $end
$var reg 1 G alu1sel $end
$var reg 1 F alu2sel $end
$var reg 3 v funct3 [2:0] $end
$var reg 7 w funct7 [6:0] $end
$var reg 32 x imm [31:0] $end
$var reg 2 y memsel [1:0] $end
$var reg 1 z memwrite $end
$var reg 7 { opcode [6:0] $end
$var reg 1 | pcsel $end
$var reg 5 } rd [4:0] $end
$var reg 1 ~ regwrite $end
$var reg 5 !" rs1 [4:0] $end
$var reg 5 "" rs2 [4:0] $end
$var reg 5 #" shamt [4:0] $end
$upscope $end
$scope module ir2BufferModule $end
$var wire 1 ! clk $end
$var wire 32 $" in [31:0] $end
$var wire 32 %" out [31:0] $end
$var reg 32 &" buffer [31:0] $end
$upscope $end
$scope module ir2ControlModule $end
$var wire 32 '" ins [31:0] $end
$var reg 1 (" alu1sel $end
$var reg 1 )" alu2sel $end
$var reg 3 *" funct3 [2:0] $end
$var reg 7 +" funct7 [6:0] $end
$var reg 32 ," imm [31:0] $end
$var reg 2 -" memsel [1:0] $end
$var reg 1 ." memwrite $end
$var reg 7 /" opcode [6:0] $end
$var reg 1 0" pcsel $end
$var reg 5 1" rd [4:0] $end
$var reg 1 2" regwrite $end
$var reg 5 3" rs1 [4:0] $end
$var reg 5 4" rs2 [4:0] $end
$var reg 5 5" shamt [4:0] $end
$upscope $end
$scope module ir3BufferModule $end
$var wire 1 ! clk $end
$var wire 32 6" in [31:0] $end
$var wire 32 7" out [31:0] $end
$var reg 32 8" buffer [31:0] $end
$upscope $end
$scope module ir3ControlModule $end
$var wire 32 9" ins [31:0] $end
$var reg 1 :" alu1sel $end
$var reg 1 ;" alu2sel $end
$var reg 3 <" funct3 [2:0] $end
$var reg 7 =" funct7 [6:0] $end
$var reg 32 >" imm [31:0] $end
$var reg 2 ?" memsel [1:0] $end
$var reg 1 A memwrite $end
$var reg 7 @" opcode [6:0] $end
$var reg 1 A" pcsel $end
$var reg 5 B" rd [4:0] $end
$var reg 1 C" regwrite $end
$var reg 5 D" rs1 [4:0] $end
$var reg 5 E" rs2 [4:0] $end
$var reg 5 F" shamt [4:0] $end
$upscope $end
$scope module ir4BufferModule $end
$var wire 1 ! clk $end
$var wire 32 G" in [31:0] $end
$var wire 32 H" out [31:0] $end
$var reg 32 I" buffer [31:0] $end
$upscope $end
$scope module ir4ControlModule $end
$var wire 32 J" ins [31:0] $end
$var reg 1 K" alu1sel $end
$var reg 1 L" alu2sel $end
$var reg 3 M" funct3 [2:0] $end
$var reg 7 N" funct7 [6:0] $end
$var reg 32 O" imm [31:0] $end
$var reg 2 P" memsel [1:0] $end
$var reg 1 Q" memwrite $end
$var reg 7 R" opcode [6:0] $end
$var reg 1 S" pcsel $end
$var reg 5 T" rd [4:0] $end
$var reg 1 > regwrite $end
$var reg 5 U" rs1 [4:0] $end
$var reg 5 V" rs2 [4:0] $end
$var reg 5 W" shamt [4:0] $end
$upscope $end
$scope module memMultiplexerModule $end
$var wire 32 X" in2 [31:0] $end
$var wire 32 Y" in4 [31:0] $end
$var wire 2 Z" sel [1:0] $end
$var wire 32 [" in3 [31:0] $end
$var wire 32 \" in1 [31:0] $end
$var reg 32 ]" out [31:0] $end
$upscope $end
$scope module memoryBuffer1Module $end
$var wire 1 ! clk $end
$var wire 32 ^" in [31:0] $end
$var wire 32 _" out [31:0] $end
$var reg 32 `" buffer [31:0] $end
$upscope $end
$scope module memoryBuffer2Module $end
$var wire 1 ! clk $end
$var wire 32 a" in [31:0] $end
$var wire 32 b" out [31:0] $end
$var reg 32 c" buffer [31:0] $end
$upscope $end
$scope module memoryBuffer3Module $end
$var wire 1 ! clk $end
$var wire 32 d" in [31:0] $end
$var wire 32 e" out [31:0] $end
$var reg 32 f" buffer [31:0] $end
$upscope $end
$scope module pcAdderModule $end
$var wire 32 g" in1 [31:0] $end
$var wire 32 h" in2 [31:0] $end
$var wire 32 i" out [31:0] $end
$upscope $end
$scope module pcIncrementModule $end
$var wire 32 j" in1 [31:0] $end
$var wire 32 k" in2 [31:0] $end
$var wire 32 l" out [31:0] $end
$upscope $end
$scope module pcMultiplexerModule $end
$var wire 32 m" in1 [31:0] $end
$var wire 32 n" in2 [31:0] $end
$var wire 1 $ sel $end
$var reg 32 o" out [31:0] $end
$upscope $end
$scope module pcRegisterModule $end
$var wire 1 ! clk $end
$var wire 32 p" in [31:0] $end
$var wire 1 q" reset $end
$var wire 32 r" out [31:0] $end
$var reg 32 s" pc [31:0] $end
$var integer 32 t" i [31:0] $end
$upscope $end
$scope module registerBankModule $end
$var wire 1 ! clk $end
$var wire 5 u" rdaddr [4:0] $end
$var wire 1 > regwrite $end
$var wire 32 v" rs1 [31:0] $end
$var wire 5 w" rs1addr [4:0] $end
$var wire 32 x" rs2 [31:0] $end
$var wire 5 y" rs2addr [4:0] $end
$var wire 32 z" rddata [31:0] $end
$var reg 32 {" reg0 [31:0] $end
$var reg 32 |" reg1 [31:0] $end
$var reg 32 }" reg10 [31:0] $end
$var reg 32 ~" reg11 [31:0] $end
$var reg 32 !# reg12 [31:0] $end
$var reg 32 "# reg13 [31:0] $end
$var reg 32 ## reg14 [31:0] $end
$var reg 32 $# reg15 [31:0] $end
$var reg 32 %# reg16 [31:0] $end
$var reg 32 &# reg17 [31:0] $end
$var reg 32 '# reg18 [31:0] $end
$var reg 32 (# reg19 [31:0] $end
$var reg 32 )# reg2 [31:0] $end
$var reg 32 *# reg20 [31:0] $end
$var reg 32 +# reg21 [31:0] $end
$var reg 32 ,# reg22 [31:0] $end
$var reg 32 -# reg23 [31:0] $end
$var reg 32 .# reg24 [31:0] $end
$var reg 32 /# reg25 [31:0] $end
$var reg 32 0# reg26 [31:0] $end
$var reg 32 1# reg27 [31:0] $end
$var reg 32 2# reg28 [31:0] $end
$var reg 32 3# reg29 [31:0] $end
$var reg 32 4# reg3 [31:0] $end
$var reg 32 5# reg30 [31:0] $end
$var reg 32 6# reg31 [31:0] $end
$var reg 32 7# reg4 [31:0] $end
$var reg 32 8# reg5 [31:0] $end
$var reg 32 9# reg6 [31:0] $end
$var reg 32 :# reg7 [31:0] $end
$var reg 32 ;# reg8 [31:0] $end
$var reg 32 <# reg9 [31:0] $end
$upscope $end
$scope module writebackBuffer $end
$var wire 1 ! clk $end
$var wire 32 =# in [31:0] $end
$var wire 32 ># out [31:0] $end
$var reg 32 ?# buffer [31:0] $end
$upscope $end
$upscope $end
$upscope $end
$scope module signExtend $end
$var wire 32 @# immSel [31:0] $end
$var wire 32 A# in [31:0] $end
$var wire 32 B# out [31:0] $end
$upscope $end
$enddefinitions $end
#0
$dumpvars
bz B#
bz A#
bz @#
bx ?#
bx >#
bx =#
bx <#
bx ;#
bx :#
bx 9#
bx 8#
bx 7#
bx 6#
bx 5#
bx 4#
bx 3#
bx 2#
bx 1#
bx 0#
bx /#
bx .#
bx -#
bx ,#
bx +#
bx *#
bx )#
bx (#
bx '#
bx &#
bx %#
bx $#
bx ##
bx "#
bx !#
bx ~"
bx }"
bx |"
b0 {"
bx z"
bx y"
bx x"
bx w"
bx v"
bx u"
b0 t"
b0 s"
b0 r"
zq"
bx p"
bx o"
bx n"
bx m"
bx l"
bx k"
b100 j"
bx i"
bx h"
bx g"
bx f"
bx e"
bx d"
bx c"
bx b"
bx a"
bx `"
bx _"
bx ^"
bx ]"
bx \"
bx ["
bx Z"
bz Y"
bx X"
bx W"
bx V"
bx U"
bx T"
xS"
bx R"
xQ"
bx P"
bx O"
bx N"
bx M"
xL"
xK"
bx J"
bx I"
bx H"
bx G"
bx F"
bx E"
bx D"
xC"
bx B"
xA"
bx @"
bx ?"
bx >"
bx ="
bx <"
x;"
x:"
bx 9"
bx 8"
bx 7"
bx 6"
bx 5"
bx 4"
bx 3"
x2"
bx 1"
x0"
bx /"
x."
bx -"
bx ,"
bx +"
bx *"
x)"
x("
bx '"
bx &"
bx %"
bx $"
bx #"
bx ""
bx !"
x~
bx }
x|
bx {
xz
bx y
bx x
bx w
bx v
bx u
bx t
bx s
b100100000000000000001101111 r
b100000000 q
b0 p
b100100000000000000001101111 o
bx n
bx m
bx l
bx k
bx j
bx i
bx h
bx g
bx f
bx e
bx d
bx c
bx b
bx a
bx `
bx _
b0 ^
bx ]
bx \
bx [
bx Z
bx Y
bx X
bx W
bx V
bx U
bx T
bx S
bz R
bx Q
bx P
bx O
bx N
bx M
bx L
bx K
bx J
bx I
bx H
xG
xF
bx E
bx D
bx C
bx B
xA
bx @
bx ?
x>
bx =
bx <
x;
bx :
bx 9
bx 8
bx 7
bx 6
bx 5
bx 4
b100100000000000000001101111 3
bx 2
bx 1
bx 0
bx /
bx .
bx -
bx ,
bx +
bx *
b0 )
bx (
bx '
bx &
bx %
0$
bz #
1"
0!
$end
#10000
b100 (
b100 o"
b100 p"
b1001000 K
b1001000 j
b1001000 i"
b1001000 C
b1001000 O
b1001000 x
b1001000 h"
b0 }
1~
0F
0G
1|
b10 w
b0 v
b1101111 {
b100 2
b100 m
b100 l"
b100 m"
b0 :
b0 L
b0 ]
b0 _
b0 g"
b0 k"
b100100000000000000001101111 1
b100100000000000000001101111 s
b100100000000000000001101111 u
b100100000000000000001101111 $"
b100100000000000000001101111 t
b1 t"
1!
#20000
0!
0"
#30000
b1001000 (
b1001000 o"
b1001000 p"
1$
b1001000 ,"
b0 1"
12"
0)"
0("
10"
b10 D
b10 V
b10 +"
b0 E
b0 W
b0 *"
b1101111 @
b1101111 S
b1101111 /"
b100100000000000000001101111 0
b100100000000000000001101111 %"
b100100000000000000001101111 '"
b100100000000000000001101111 6"
b100100000000000000001101111 &"
b100 4
b100 l
b100 d"
b100 n
b1001000 5
b1001000 i
b1001000 n"
b1001000 k
b10 t"
1!
#40000
0!
#50000
b100 *
b100 ]"
b100 =#
b1001000 >"
b0 B"
1C"
0;"
0:"
1A"
b10 ="
b0 <"
b1101111 @"
b100 +
b100 \"
b100 e"
b100 f"
b100100000000000000001101111 /
b100100000000000000001101111 7"
b100100000000000000001101111 9"
b100100000000000000001101111 G"
b100100000000000000001101111 8"
b11 t"
1!
#60000
0!
#70000
b1001000 O"
b0 ?
b0 T"
b0 u"
1>
0L"
0K"
1S"
b10 N"
b0 M"
b1101111 R"
b100100000000000000001101111 .
b100100000000000000001101111 H"
b100100000000000000001101111 J"
b100100000000000000001101111 I"
b100 %
b100 z"
b100 >#
b100 ?#
b100 t"
1!
#80000
0!
#90000
b10010011 3
b10010011 o
b10010011 r
b1001000 )
b1001000 ^
b1001000 p
b1001000 r"
b1001000 s"
b101 t"
1!
#100000
0!
#110000
b0 H
b0 Q
b0 c
b0 I
b0 N
b0 `
b10 y
1F
b0 C
b0 O
b0 x
b0 h"
b0 '
b0 M
b0 v"
b0 =
b0 !"
b0 w"
b1 }
1~
0|
b0 w
b10011 {
b10010011 1
b10010011 s
b10010011 u
b10010011 $"
b10010011 t
b1001000 K
b1001000 j
b1001000 i"
b1001100 2
b1001100 m
b1001100 l"
b1001100 m"
b1001000 :
b1001000 L
b1001000 ]
b1001000 _
b1001000 g"
b1001000 k"
b110 t"
1!
#120000
0!
#130000
b1001100 (
b1001100 o"
b1001100 p"
b0 J
b0 X
b0 ^"
0$
b10 -"
1)"
b0 ,"
b0 3"
b1 1"
12"
00"
b0 D
b0 V
b0 +"
b10011 @
b10011 S
b10011 /"
b0 8
b0 U
b0 a
b0 b
b0 7
b0 T
b0 d
b0 e
b1001100 4
b1001100 l
b1001100 d"
b1001100 n
b10010011 0
b10010011 %"
b10010011 '"
b10010011 6"
b10010011 &"
b111 t"
1!
#140000
0!
#150000
b10 B
b10 ?"
b10 Z"
1;"
b0 >"
b0 D"
b1 B"
1C"
0A"
b0 ="
b10011 @"
b0 *
b0 ]"
b0 =#
b10010011 /
b10010011 7"
b10010011 9"
b10010011 G"
b10010011 8"
b1001100 +
b1001100 \"
b1001100 e"
b1001100 f"
b0 -
b0 [
b0 ["
b0 _"
b0 `"
b1000 t"
1!
#160000
0!
#170000
b10 P"
1L"
b0 O"
b0 U"
b1 ?
b1 T"
b1 u"
1>
0S"
b0 N"
b10011 R"
b0 %
b0 z"
b0 >#
b0 ?#
b10010011 .
b10010011 H"
b10010011 J"
b10010011 I"
b1001 t"
1!
#180000
0!
#190000
b0 |"
b100010011 3
b100010011 o
b100010011 r
b1001100 )
b1001100 ^
b1001100 p
b1001100 r"
b1001100 s"
b1010 t"
1!
#200000
0!
#210000
b1010000 (
b1010000 o"
b1010000 p"
b10 }
1~
1F
b1001100 K
b1001100 j
b1001100 i"
b1010000 2
b1010000 m
b1010000 l"
b1010000 m"
b1001100 :
b1001100 L
b1001100 ]
b1001100 _
b1001100 g"
b1001100 k"
b100010011 1
b100010011 s
b100010011 u
b100010011 $"
b100010011 t
b1011 t"
1!
#220000
0!
#230000
b10 1"
12"
1)"
b100010011 0
b100010011 %"
b100010011 '"
b100010011 6"
b100010011 &"
b1010000 4
b1010000 l
b1010000 d"
b1010000 n
b1001100 5
b1001100 i
b1001100 n"
b1001100 k
b1100 t"
1!
#240000
0!
#250000
b10 B"
1C"
1;"
b1010000 +
b1010000 \"
b1010000 e"
b1010000 f"
b100010011 /
b100010011 7"
b100010011 9"
b100010011 G"
b100010011 8"
b1101 t"
1!
#260000
0!
#270000
b10 ?
b10 T"
b10 u"
1>
1L"
b100010011 .
b100010011 H"
b100010011 J"
b100010011 I"
b1110 t"
1!
#280000
0!
#290000
b0 )#
b110010011 3
b110010011 o
b110010011 r
b1010000 )
b1010000 ^
b1010000 p
b1010000 r"
b1010000 s"
b1111 t"
1!
#300000
0!
#310000
b11 }
1~
1F
b1010100 (
b1010100 o"
b1010100 p"
b110010011 1
b110010011 s
b110010011 u
b110010011 $"
b110010011 t
b1010000 K
b1010000 j
b1010000 i"
b1010100 2
b1010100 m
b1010100 l"
b1010100 m"
b1010000 :
b1010000 L
b1010000 ]
b1010000 _
b1010000 g"
b1010000 k"
b10000 t"
1!
#320000
0!
#330000
b11 1"
12"
1)"
b1010000 5
b1010000 i
b1010000 n"
b1010000 k
b1010100 4
b1010100 l
b1010100 d"
b1010100 n
b110010011 0
b110010011 %"
b110010011 '"
b110010011 6"
b110010011 &"
b10001 t"
1!
#340000
0!
#350000
b11 B"
1C"
1;"
b110010011 /
b110010011 7"
b110010011 9"
b110010011 G"
b110010011 8"
b1010100 +
b1010100 \"
b1010100 e"
b1010100 f"
b10010 t"
1!
#360000
0!
#370000
b11 ?
b11 T"
b11 u"
1>
1L"
b110010011 .
b110010011 H"
b110010011 J"
b110010011 I"
b10011 t"
1!
#380000
0!
#390000
b0 4#
b1000010011 3
b1000010011 o
b1000010011 r
b1010100 )
b1010100 ^
b1010100 p
b1010100 r"
b1010100 s"
b10100 t"
1!
#400000
0!
#410000
b1011000 (
b1011000 o"
b1011000 p"
b100 }
1~
1F
b1010100 K
b1010100 j
b1010100 i"
b1011000 2
b1011000 m
b1011000 l"
b1011000 m"
b1010100 :
b1010100 L
b1010100 ]
b1010100 _
b1010100 g"
b1010100 k"
b1000010011 1
b1000010011 s
b1000010011 u
b1000010011 $"
b1000010011 t
b10101 t"
1!
#420000
0!
#430000
b100 1"
12"
1)"
b1000010011 0
b1000010011 %"
b1000010011 '"
b1000010011 6"
b1000010011 &"
b1011000 4
b1011000 l
b1011000 d"
b1011000 n
b1010100 5
b1010100 i
b1010100 n"
b1010100 k
b10110 t"
1!
#440000
0!
#450000
b100 B"
1C"
1;"
b1011000 +
b1011000 \"
b1011000 e"
b1011000 f"
b1000010011 /
b1000010011 7"
b1000010011 9"
b1000010011 G"
b1000010011 8"
b10111 t"
1!
#460000
0!
#470000
b100 ?
b100 T"
b100 u"
1>
1L"
b1000010011 .
b1000010011 H"
b1000010011 J"
b1000010011 I"
b11000 t"
1!
#480000
0!
#490000
b0 7#
b1010010011 3
b1010010011 o
b1010010011 r
b1011000 )
b1011000 ^
b1011000 p
b1011000 r"
b1011000 s"
b11001 t"
1!
#500000
0!
#510000
b101 }
1~
1F
b1011100 (
b1011100 o"
b1011100 p"
b1010010011 1
b1010010011 s
b1010010011 u
b1010010011 $"
b1010010011 t
b1011000 K
b1011000 j
b1011000 i"
b1011100 2
b1011100 m
b1011100 l"
b1011100 m"
b1011000 :
b1011000 L
b1011000 ]
b1011000 _
b1011000 g"
b1011000 k"
b11010 t"
1!
#520000
0!
#530000
b101 1"
12"
1)"
b1011000 5
b1011000 i
b1011000 n"
b1011000 k
b1011100 4
b1011100 l
b1011100 d"
b1011100 n
b1010010011 0
b1010010011 %"
b1010010011 '"
b1010010011 6"
b1010010011 &"
b11011 t"
1!
#540000
0!
#550000
b101 B"
1C"
1;"
b1010010011 /
b1010010011 7"
b1010010011 9"
b1010010011 G"
b1010010011 8"
b1011100 +
b1011100 \"
b1011100 e"
b1011100 f"
b11100 t"
1!
#560000
0!
#570000
b101 ?
b101 T"
b101 u"
1>
1L"
b1010010011 .
b1010010011 H"
b1010010011 J"
b1010010011 I"
b11101 t"
1!
#580000
0!
#590000
b0 8#
b1100010011 3
b1100010011 o
b1100010011 r
b1011100 )
b1011100 ^
b1011100 p
b1011100 r"
b1011100 s"
b11110 t"
1!
#600000
0!
#610000
b1100000 (
b1100000 o"
b1100000 p"
b110 }
1~
1F
b1011100 K
b1011100 j
b1011100 i"
b1100000 2
b1100000 m
b1100000 l"
b1100000 m"
b1011100 :
b1011100 L
b1011100 ]
b1011100 _
b1011100 g"
b1011100 k"
b1100010011 1
b1100010011 s
b1100010011 u
b1100010011 $"
b1100010011 t
b11111 t"
1!
#620000
0!
#630000
b110 1"
12"
1)"
b1100010011 0
b1100010011 %"
b1100010011 '"
b1100010011 6"
b1100010011 &"
b1100000 4
b1100000 l
b1100000 d"
b1100000 n
b1011100 5
b1011100 i
b1011100 n"
b1011100 k
b100000 t"
1!
#640000
0!
#650000
b110 B"
1C"
1;"
b1100000 +
b1100000 \"
b1100000 e"
b1100000 f"
b1100010011 /
b1100010011 7"
b1100010011 9"
b1100010011 G"
b1100010011 8"
b100001 t"
1!
#660000
0!
#670000
b110 ?
b110 T"
b110 u"
1>
1L"
b1100010011 .
b1100010011 H"
b1100010011 J"
b1100010011 I"
b100010 t"
1!
#680000
0!
#690000
b0 9#
b1110010011 3
b1110010011 o
b1110010011 r
b1100000 )
b1100000 ^
b1100000 p
b1100000 r"
b1100000 s"
b100011 t"
1!
#700000
0!
#710000
b111 }
1~
1F
b1100100 (
b1100100 o"
b1100100 p"
b1110010011 1
b1110010011 s
b1110010011 u
b1110010011 $"
b1110010011 t
b1100000 K
b1100000 j
b1100000 i"
b1100100 2
b1100100 m
b1100100 l"
b1100100 m"
b1100000 :
b1100000 L
b1100000 ]
b1100000 _
b1100000 g"
b1100000 k"
b100100 t"
1!
#720000
0!
#730000
b111 1"
12"
1)"
b1100000 5
b1100000 i
b1100000 n"
b1100000 k
b1100100 4
b1100100 l
b1100100 d"
b1100100 n
b1110010011 0
b1110010011 %"
b1110010011 '"
b1110010011 6"
b1110010011 &"
b100101 t"
1!
#740000
0!
#750000
b111 B"
1C"
1;"
b1110010011 /
b1110010011 7"
b1110010011 9"
b1110010011 G"
b1110010011 8"
b1100100 +
b1100100 \"
b1100100 e"
b1100100 f"
b100110 t"
1!
#760000
0!
#770000
b111 ?
b111 T"
b111 u"
1>
1L"
b1110010011 .
b1110010011 H"
b1110010011 J"
b1110010011 I"
b100111 t"
1!
#780000
0!
#790000
b0 :#
b10000010011 3
b10000010011 o
b10000010011 r
b1100100 )
b1100100 ^
b1100100 p
b1100100 r"
b1100100 s"
b101000 t"
1!
#800000
0!
#810000
b1101000 (
b1101000 o"
b1101000 p"
b1000 }
1~
1F
b1100100 K
b1100100 j
b1100100 i"
b1101000 2
b1101000 m
b1101000 l"
b1101000 m"
b1100100 :
b1100100 L
b1100100 ]
b1100100 _
b1100100 g"
b1100100 k"
b10000010011 1
b10000010011 s
b10000010011 u
b10000010011 $"
b10000010011 t
b101001 t"
1!
#820000
0!
#830000
b1000 1"
12"
1)"
b10000010011 0
b10000010011 %"
b10000010011 '"
b10000010011 6"
b10000010011 &"
b1101000 4
b1101000 l
b1101000 d"
b1101000 n
b1100100 5
b1100100 i
b1100100 n"
b1100100 k
b101010 t"
1!
#840000
0!
#850000
b1000 B"
1C"
1;"
b1101000 +
b1101000 \"
b1101000 e"
b1101000 f"
b10000010011 /
b10000010011 7"
b10000010011 9"
b10000010011 G"
b10000010011 8"
b101011 t"
1!
#860000
0!
#870000
b1000 ?
b1000 T"
b1000 u"
1>
1L"
b10000010011 .
b10000010011 H"
b10000010011 J"
b10000010011 I"
b101100 t"
1!
#880000
0!
#890000
b0 ;#
b10010010011 3
b10010010011 o
b10010010011 r
b1101000 )
b1101000 ^
b1101000 p
b1101000 r"
b1101000 s"
b101101 t"
1!
#900000
0!
#910000
b1001 }
1~
1F
b1101100 (
b1101100 o"
b1101100 p"
b10010010011 1
b10010010011 s
b10010010011 u
b10010010011 $"
b10010010011 t
b1101000 K
b1101000 j
b1101000 i"
b1101100 2
b1101100 m
b1101100 l"
b1101100 m"
b1101000 :
b1101000 L
b1101000 ]
b1101000 _
b1101000 g"
b1101000 k"
b101110 t"
1!
#920000
0!
#930000
b1001 1"
12"
1)"
b1101000 5
b1101000 i
b1101000 n"
b1101000 k
b1101100 4
b1101100 l
b1101100 d"
b1101100 n
b10010010011 0
b10010010011 %"
b10010010011 '"
b10010010011 6"
b10010010011 &"
b101111 t"
1!
#940000
0!
#950000
b1001 B"
1C"
1;"
b10010010011 /
b10010010011 7"
b10010010011 9"
b10010010011 G"
b10010010011 8"
b1101100 +
b1101100 \"
b1101100 e"
b1101100 f"
b110000 t"
1!
#960000
0!
#970000
b1001 ?
b1001 T"
b1001 u"
1>
1L"
b10010010011 .
b10010010011 H"
b10010010011 J"
b10010010011 I"
b110001 t"
1!
#980000
0!
#990000
b0 <#
b10100010011 3
b10100010011 o
b10100010011 r
b1101100 )
b1101100 ^
b1101100 p
b1101100 r"
b1101100 s"
b110010 t"
1!
#1000000
0!
#1010000
b1110000 (
b1110000 o"
b1110000 p"
b1010 }
1~
1F
b1101100 K
b1101100 j
b1101100 i"
b1110000 2
b1110000 m
b1110000 l"
b1110000 m"
b1101100 :
b1101100 L
b1101100 ]
b1101100 _
b1101100 g"
b1101100 k"
b10100010011 1
b10100010011 s
b10100010011 u
b10100010011 $"
b10100010011 t
b110011 t"
1!
#1020000
0!
#1030000
b1010 1"
12"
1)"
b10100010011 0
b10100010011 %"
b10100010011 '"
b10100010011 6"
b10100010011 &"
b1110000 4
b1110000 l
b1110000 d"
b1110000 n
b1101100 5
b1101100 i
b1101100 n"
b1101100 k
b110100 t"
1!
#1040000
0!
#1050000
b1010 B"
1C"
1;"
b1110000 +
b1110000 \"
b1110000 e"
b1110000 f"
b10100010011 /
b10100010011 7"
b10100010011 9"
b10100010011 G"
b10100010011 8"
b110101 t"
1!
#1060000
0!
#1070000
b1010 ?
b1010 T"
b1010 u"
1>
1L"
b10100010011 .
b10100010011 H"
b10100010011 J"
b10100010011 I"
b110110 t"
1!
#1080000
0!
#1090000
b0 }"
b10110010011 3
b10110010011 o
b10110010011 r
b1110000 )
b1110000 ^
b1110000 p
b1110000 r"
b1110000 s"
b110111 t"
1!
#1100000
0!
#1110000
b1011 }
1~
1F
b1110100 (
b1110100 o"
b1110100 p"
b10110010011 1
b10110010011 s
b10110010011 u
b10110010011 $"
b10110010011 t
b1110000 K
b1110000 j
b1110000 i"
b1110100 2
b1110100 m
b1110100 l"
b1110100 m"
b1110000 :
b1110000 L
b1110000 ]
b1110000 _
b1110000 g"
b1110000 k"
b111000 t"
1!
#1120000
0!
#1130000
b1011 1"
12"
1)"
b1110000 5
b1110000 i
b1110000 n"
b1110000 k
b1110100 4
b1110100 l
b1110100 d"
b1110100 n
b10110010011 0
b10110010011 %"
b10110010011 '"
b10110010011 6"
b10110010011 &"
b111001 t"
1!
#1140000
0!
#1150000
b1011 B"
1C"
1;"
b10110010011 /
b10110010011 7"
b10110010011 9"
b10110010011 G"
b10110010011 8"
b1110100 +
b1110100 \"
b1110100 e"
b1110100 f"
b111010 t"
1!
#1160000
0!
#1170000
b1011 ?
b1011 T"
b1011 u"
1>
1L"
b10110010011 .
b10110010011 H"
b10110010011 J"
b10110010011 I"
b111011 t"
1!
#1180000
0!
#1190000
b0 ~"
b11000010011 3
b11000010011 o
b11000010011 r
b1110100 )
b1110100 ^
b1110100 p
b1110100 r"
b1110100 s"
b111100 t"
1!
#1200000
0!
#1210000
b1111000 (
b1111000 o"
b1111000 p"
b1100 }
1~
1F
b1110100 K
b1110100 j
b1110100 i"
b1111000 2
b1111000 m
b1111000 l"
b1111000 m"
b1110100 :
b1110100 L
b1110100 ]
b1110100 _
b1110100 g"
b1110100 k"
b11000010011 1
b11000010011 s
b11000010011 u
b11000010011 $"
b11000010011 t
b111101 t"
1!
#1220000
0!
#1230000
b1100 1"
12"
1)"
b11000010011 0
b11000010011 %"
b11000010011 '"
b11000010011 6"
b11000010011 &"
b1111000 4
b1111000 l
b1111000 d"
b1111000 n
b1110100 5
b1110100 i
b1110100 n"
b1110100 k
b111110 t"
1!
#1240000
0!
#1250000
b1100 B"
1C"
1;"
b1111000 +
b1111000 \"
b1111000 e"
b1111000 f"
b11000010011 /
b11000010011 7"
b11000010011 9"
b11000010011 G"
b11000010011 8"
b111111 t"
1!
#1260000
0!
