section_3/cpu.vcd
$date
	Sat Jan 21 08:09:40 2023
$end
$version
	Icarus Verilog
$end
$timescale
	1ps
$end
$scope module cpuTB $end
$var reg 1 ! clk $end
$var reg 1 " reset $end
$scope module riscv $end
$var wire 1 ! clk $end
$var wire 1 " reset $end
$var wire 1 # zero $end
$var wire 32 $ wbuff [31:0] $end
$var wire 32 % rs2 [31:0] $end
$var wire 32 & rs1 [31:0] $end
$var wire 32 ' pcmux [31:0] $end
$var wire 32 ( pc [31:0] $end
$var wire 32 ) memmux [31:0] $end
$var wire 32 * mbuff3 [31:0] $end
$var wire 32 + mbuff2 [31:0] $end
$var wire 32 , mbuff1 [31:0] $end
$var wire 32 - ir4 [31:0] $end
$var wire 32 . ir3 [31:0] $end
$var wire 32 / ir2 [31:0] $end
$var wire 32 0 ir1 [31:0] $end
$var wire 32 1 incr [31:0] $end
$var wire 32 2 imem [31:0] $end
$var wire 32 3 ebuff4 [31:0] $end
$var wire 32 4 ebuff3 [31:0] $end
$var wire 32 5 ebuff2 [31:0] $end
$var wire 32 6 ebuff1 [31:0] $end
$var wire 32 7 dmem [31:0] $end
$var wire 32 8 dbuff [31:0] $end
$var wire 5 9 c_rs2 [4:0] $end
$var wire 5 : c_rs1 [4:0] $end
$var wire 1 ; c_regwrite $end
$var wire 5 < c_rd [4:0] $end
$var wire 7 = c_opcode [6:0] $end
$var wire 1 > c_memwrite $end
$var wire 2 ? c_memsel [1:0] $end
$var wire 2 @ c_memarea [1:0] $end
$var wire 32 A c_imm [31:0] $end
$var wire 7 B c_funct7 [6:0] $end
$var wire 3 C c_funct3 [2:0] $end
$var wire 1 D c_alu2sel $end
$var wire 1 E c_alu1sel $end
$var wire 32 F alu2mux [31:0] $end
$var wire 32 G alu1mux [31:0] $end
$var wire 32 H alu [31:0] $end
$scope module alu1MultiplexerModule $end
$var wire 1 E sel $end
$var wire 32 I in2 [31:0] $end
$var wire 32 J in1 [31:0] $end
$var reg 32 K out [31:0] $end
$upscope $end
$scope module alu2MultiplexerModule $end
$var wire 1 D sel $end
$var wire 32 L in2 [31:0] $end
$var wire 32 M in1 [31:0] $end
$var reg 32 N out [31:0] $end
$upscope $end
$scope module aluModule $end
$var wire 7 O opcode [6:0] $end
$var wire 32 P in2 [31:0] $end
$var wire 32 Q in1 [31:0] $end
$var wire 7 R funct7 [6:0] $end
$var wire 3 S funct3 [2:0] $end
$var reg 32 T out [31:0] $end
$var reg 1 # zero $end
$upscope $end
$scope module dataMemoryModule $end
$var wire 1 ! clk $end
$var wire 1 > write $end
$var wire 32 U dataout [31:0] $end
$var wire 32 V datain [31:0] $end
$var wire 2 W area [1:0] $end
$var wire 32 X address [31:0] $end
$upscope $end
$scope module decodeBufferMoudle $end
$var wire 1 ! clk $end
$var wire 32 Y out [31:0] $end
$var wire 32 Z in [31:0] $end
$var reg 32 [ buffer [31:0] $end
$upscope $end
$scope module executeBuffer1Module $end
$var wire 1 ! clk $end
$var wire 32 \ in [31:0] $end
$var wire 32 ] out [31:0] $end
$var reg 32 ^ buffer [31:0] $end
$upscope $end
$scope module executeBuffer2Module $end
$var wire 1 ! clk $end
$var wire 32 _ in [31:0] $end
$var wire 32 ` out [31:0] $end
$var reg 32 a buffer [31:0] $end
$upscope $end
$scope module executeBuffer3Module $end
$var wire 1 ! clk $end
$var wire 32 b out [31:0] $end
$var wire 32 c in [31:0] $end
$var reg 32 d buffer [31:0] $end
$upscope $end
$scope module executeBuffer4Module $end
$var wire 1 ! clk $end
$var wire 32 e out [31:0] $end
$var wire 32 f in [31:0] $end
$var reg 32 g buffer [31:0] $end
$upscope $end
$scope module instructionMemoryModule $end
$var wire 32 h instruction [31:0] $end
$var wire 32 i address [31:0] $end
$var integer 32 j i [31:0] $end
$upscope $end
$scope module ir1BufferModule $end
$var wire 1 ! clk $end
$var wire 32 k in [31:0] $end
$var wire 32 l out [31:0] $end
$var reg 32 m buffer [31:0] $end
$upscope $end
$scope module ir1ControlModule $end
$var wire 32 n ins [31:0] $end
$var reg 1 E alu1sel $end
$var reg 1 D alu2sel $end
$var reg 3 o funct3 [2:0] $end
$var reg 7 p funct7 [6:0] $end
$var reg 32 q imm [31:0] $end
$var reg 2 r memarea [1:0] $end
$var reg 2 s memsel [1:0] $end
$var reg 1 t memwrite $end
$var reg 7 u opcode [6:0] $end
$var reg 5 v rd [4:0] $end
$var reg 1 w regwrite $end
$var reg 5 x rs1 [4:0] $end
$var reg 5 y rs2 [4:0] $end
$upscope $end
$scope module ir2BufferModule $end
$var wire 1 ! clk $end
$var wire 32 z in [31:0] $end
$var wire 32 { out [31:0] $end
$var reg 32 | buffer [31:0] $end
$upscope $end
$scope module ir2ControlModule $end
$var wire 32 } ins [31:0] $end
$var reg 1 ~ alu1sel $end
$var reg 1 !" alu2sel $end
$var reg 3 "" funct3 [2:0] $end
$var reg 7 #" funct7 [6:0] $end
$var reg 32 $" imm [31:0] $end
$var reg 2 %" memarea [1:0] $end
$var reg 2 &" memsel [1:0] $end
$var reg 1 '" memwrite $end
$var reg 7 (" opcode [6:0] $end
$var reg 5 )" rd [4:0] $end
$var reg 1 *" regwrite $end
$var reg 5 +" rs1 [4:0] $end
$var reg 5 ," rs2 [4:0] $end
$upscope $end
$scope module ir3BufferModule $end
$var wire 1 ! clk $end
$var wire 32 -" in [31:0] $end
$var wire 32 ." out [31:0] $end
$var reg 32 /" buffer [31:0] $end
$upscope $end
$scope module ir3ControlModule $end
$var wire 32 0" ins [31:0] $end
$var reg 1 1" alu1sel $end
$var reg 1 2" alu2sel $end
$var reg 3 3" funct3 [2:0] $end
$var reg 7 4" funct7 [6:0] $end
$var reg 32 5" imm [31:0] $end
$var reg 2 6" memarea [1:0] $end
$var reg 2 7" memsel [1:0] $end
$var reg 1 > memwrite $end
$var reg 7 8" opcode [6:0] $end
$var reg 5 9" rd [4:0] $end
$var reg 1 :" regwrite $end
$var reg 5 ;" rs1 [4:0] $end
$var reg 5 <" rs2 [4:0] $end
$upscope $end
$scope module ir4BufferModule $end
$var wire 1 ! clk $end
$var wire 32 =" in [31:0] $end
$var wire 32 >" out [31:0] $end
$var reg 32 ?" buffer [31:0] $end
$upscope $end
$scope module ir4ControlModule $end
$var wire 32 @" ins [31:0] $end
$var reg 1 A" alu1sel $end
$var reg 1 B" alu2sel $end
$var reg 3 C" funct3 [2:0] $end
$var reg 7 D" funct7 [6:0] $end
$var reg 32 E" imm [31:0] $end
$var reg 2 F" memarea [1:0] $end
$var reg 2 G" memsel [1:0] $end
$var reg 1 H" memwrite $end
$var reg 7 I" opcode [6:0] $end
$var reg 5 J" rd [4:0] $end
$var reg 1 ; regwrite $end
$var reg 5 K" rs1 [4:0] $end
$var reg 5 L" rs2 [4:0] $end
$upscope $end
$scope module memMultiplexerModule $end
$var wire 32 M" in2 [31:0] $end
$var wire 32 N" in4 [31:0] $end
$var wire 2 O" sel [1:0] $end
$var wire 32 P" in3 [31:0] $end
$var wire 32 Q" in1 [31:0] $end
$var reg 32 R" out [31:0] $end
$upscope $end
$scope module memoryBuffer1Module $end
$var wire 1 ! clk $end
$var wire 32 S" in [31:0] $end
$var wire 32 T" out [31:0] $end
$var reg 32 U" buffer [31:0] $end
$upscope $end
$scope module memoryBuffer2Module $end
$var wire 1 ! clk $end
$var wire 32 V" in [31:0] $end
$var wire 32 W" out [31:0] $end
$var reg 32 X" buffer [31:0] $end
$upscope $end
$scope module memoryBuffer3Module $end
$var wire 1 ! clk $end
$var wire 32 Y" in [31:0] $end
$var wire 32 Z" out [31:0] $end
$var reg 32 [" buffer [31:0] $end
$upscope $end
$scope module pcIncrementModule $end
$var wire 32 \" in1 [31:0] $end
$var wire 32 ]" in2 [31:0] $end
$var wire 32 ^" out [31:0] $end
$upscope $end
$scope module pcMultiplexerModule $end
$var wire 32 _" in1 [31:0] $end
$var wire 32 `" in2 [31:0] $end
$var wire 1 # sel $end
$var reg 32 a" out [31:0] $end
$upscope $end
$scope module pcRegisterModule $end
$var wire 1 ! clk $end
$var wire 32 b" in [31:0] $end
$var wire 1 c" reset $end
$var wire 32 d" out [31:0] $end
$var reg 32 e" pc [31:0] $end
$var integer 32 f" i [31:0] $end
$upscope $end
$scope module registerBankModule $end
$var wire 1 ! clk $end
$var wire 5 g" rdaddr [4:0] $end
$var wire 1 ; regwrite $end
$var wire 32 h" rs1 [31:0] $end
$var wire 5 i" rs1addr [4:0] $end
$var wire 32 j" rs2 [31:0] $end
$var wire 5 k" rs2addr [4:0] $end
$var wire 32 l" rddata [31:0] $end
$var reg 32 m" reg0 [31:0] $end
$var reg 32 n" reg1 [31:0] $end
$var reg 32 o" reg10 [31:0] $end
$var reg 32 p" reg11 [31:0] $end
$var reg 32 q" reg12 [31:0] $end
$var reg 32 r" reg13 [31:0] $end
$var reg 32 s" reg14 [31:0] $end
$var reg 32 t" reg15 [31:0] $end
$var reg 32 u" reg16 [31:0] $end
$var reg 32 v" reg17 [31:0] $end
$var reg 32 w" reg18 [31:0] $end
$var reg 32 x" reg19 [31:0] $end
$var reg 32 y" reg2 [31:0] $end
$var reg 32 z" reg20 [31:0] $end
$var reg 32 {" reg21 [31:0] $end
$var reg 32 |" reg22 [31:0] $end
$var reg 32 }" reg23 [31:0] $end
$var reg 32 ~" reg24 [31:0] $end
$var reg 32 !# reg25 [31:0] $end
$var reg 32 "# reg26 [31:0] $end
$var reg 32 ## reg27 [31:0] $end
$var reg 32 $# reg28 [31:0] $end
$var reg 32 %# reg29 [31:0] $end
$var reg 32 &# reg3 [31:0] $end
$var reg 32 '# reg30 [31:0] $end
$var reg 32 (# reg31 [31:0] $end
$var reg 32 )# reg4 [31:0] $end
$var reg 32 *# reg5 [31:0] $end
$var reg 32 +# reg6 [31:0] $end
$var reg 32 ,# reg7 [31:0] $end
$var reg 32 -# reg8 [31:0] $end
$var reg 32 .# reg9 [31:0] $end
$upscope $end
$scope module writebackBuffer $end
$var wire 1 ! clk $end
$var wire 32 /# in [31:0] $end
$var wire 32 0# out [31:0] $end
$var reg 32 1# buffer [31:0] $end
$upscope $end
$upscope $end
$upscope $end
$scope module signExtend $end
$var wire 32 2# immSel [31:0] $end
$var wire 32 3# in [31:0] $end
$var wire 32 4# out [31:0] $end
$upscope $end
$enddefinitions $end
#0
$dumpvars
bz 4#
bz 3#
bz 2#
bx 1#
bx 0#
bx /#
bx .#
bx -#
bx ,#
bx +#
bx *#
bx )#
bx (#
bx '#
bx &#
bx %#
bx $#
bx ##
bx "#
bx !#
bx ~"
bx }"
bx |"
bx {"
bx z"
bx y"
bx x"
bx w"
bx v"
bx u"
bx t"
bx s"
bx r"
bx q"
bx p"
bx o"
bx n"
b0 m"
bx l"
bx k"
bx j"
bx i"
bx h"
bx g"
b0 f"
b0 e"
b0 d"
zc"
bx b"
bx a"
bx `"
bx _"
bx ^"
bx ]"
b100 \"
bx ["
bx Z"
bx Y"
bx X"
bx W"
bx V"
bx U"
bx T"
bx S"
bx R"
bx Q"
bx P"
bx O"
bz N"
b0x M"
bx L"
bx K"
bx J"
bx I"
xH"
bx G"
bx F"
bx E"
bx D"
bx C"
xB"
xA"
bx @"
bx ?"
bx >"
bx ="
bx <"
bx ;"
x:"
bx 9"
bx 8"
bx 7"
bx 6"
bx 5"
bx 4"
bx 3"
x2"
x1"
bx 0"
bx /"
bx ."
bx -"
bx ,"
bx +"
x*"
bx )"
bx ("
x'"
bx &"
bx %"
bx $"
bx #"
bx ""
x!"
x~
bx }
bx |
bx {
bx z
bx y
bx x
xw
bx v
bx u
xt
bx s
bx r
bx q
bx p
bx o
bx n
bx m
bx l
b100100000000000000001101111 k
b1000000000 j
b0 i
b100100000000000000001101111 h
bx g
bx f
bx e
bx d
bx c
bx b
bx a
bx `
bx _
bx ^
bx ]
bx \
bx [
b0 Z
bx Y
bx X
bx W
bx V
b0x U
bx T
bx S
bx R
bx Q
bx P
bx O
bx N
bx M
bx L
bx K
bx J
bx I
bx H
bx G
bx F
xE
xD
bx C
bx B
bx A
bx @
bx ?
x>
bx =
bx <
x;
bx :
bx 9
bx 8
b0x 7
bx 6
bx 5
bx 4
bx 3
b100100000000000000001101111 2
bx 1
bx 0
bx /
bx .
bx -
bx ,
bx +
bx *
bx )
b0 (
bx '
bx &
bx %
bx $
x#
1"
0!
$end
#10000
b1001000 F
b1001000 N
b1001000 _
b0 G
b0 K
b0 \
b0 v
1w
b0 s
bz r
0t
b1001000 A
b1001000 L
b1001000 q
bz 9
bz y
bz k"
bz :
bz x
bz i"
1D
1E
b10 p
bz o
b1101111 u
b100 1
b100 f
b100 ^"
b100 _"
b0 8
b0 I
b0 Y
b0 [
b0 ]"
b100100000000000000001101111 0
b100100000000000000001101111 l
b100100000000000000001101111 n
b100100000000000000001101111 z
b100100000000000000001101111 m
b1 f"
1!
#20000
0!
0"
#30000
b1001000 H
b1001000 T
b1001000 S"
b1001000 `"
b1001000 '
b1001000 a"
b1001000 b"
b0 )"
1*"
b0 &"
bz %"
0'"
b1001000 $"
bz ,"
bz +"
1!"
1~
b10 B
b10 R
b10 #"
bz C
bz S
bz ""
b1101111 =
b1101111 O
b1101111 ("
1#
b100100000000000000001101111 /
b100100000000000000001101111 {
b100100000000000000001101111 }
b100100000000000000001101111 -"
b100100000000000000001101111 |
b100 3
b100 e
b100 Y"
b100 g
b1001000 5
b1001000 P
b1001000 `
b1001000 a
b0 6
b0 Q
b0 ]
b0 ^
b10 f"
1!
#40000
0!
#50000
b100 )
b100 R"
b100 /#
b0 9"
1:"
b0 ?
b0 7"
b0 O"
bz @
bz W
bz 6"
0>
b1001000 5"
bz <"
bz ;"
12"
11"
b10 4"
bz 3"
b1101111 8"
b1001000 ,
b1001000 X
b1001000 P"
b1001000 T"
b1001000 U"
b100 *
b100 Q"
b100 Z"
b100 ["
b100100000000000000001101111 .
b100100000000000000001101111 ."
b100100000000000000001101111 0"
b100100000000000000001101111 ="
b100100000000000000001101111 /"
b11 f"
1!
#60000
0!
#70000
b0 <
b0 J"
b0 g"
1;
b0 G"
bz F"
0H"
b1001000 E"
bz L"
bz K"
1B"
1A"
b10 D"
bz C"
b1101111 I"
b100100000000000000001101111 -
b100100000000000000001101111 >"
b100100000000000000001101111 @"
b100100000000000000001101111 ?"
b100 $
b100 l"
b100 0#
b100 1#
b100 f"
1!
#80000
0!
#90000
b10010011 2
b10010011 h
b10010011 k
b1001000 (
b1001000 Z
b1001000 i
b1001000 d"
b1001000 e"
b101 f"
1!
#100000
0!
#110000
b0 F
b0 N
b0 _
b1 v
b10 s
b0 A
b0 L
b0 q
b0 &
b0 J
b0 h"
b0 :
b0 x
b0 i"
0E
b0 p
b0 o
b10011 u
b0 G
b0 K
b0 \
b10010011 0
b10010011 l
b10010011 n
b10010011 z
b10010011 m
b1001100 1
b1001100 f
b1001100 ^"
b1001100 _"
b1001000 8
b1001000 I
b1001000 Y
b1001000 [
b1001000 ]"
b110 f"
1!
#120000
0!
#130000
b1001100 '
b1001100 a"
b1001100 b"
b0 H
b0 T
b0 S"
b0 `"
0#
b1 )"
b10 &"
b0 $"
b0 +"
0~
b0 B
b0 R
b0 #"
b0 C
b0 S
b0 ""
b10011 =
b10011 O
b10011 ("
b0 5
b0 P
b0 `
b0 a
b1001100 3
b1001100 e
b1001100 Y"
b1001100 g
b10010011 /
b10010011 {
b10010011 }
b10010011 -"
b10010011 |
b111 f"
1!
#140000
0!
#150000
b1 9"
b10 ?
b10 7"
b10 O"
b0 5"
b0 ;"
01"
b0 4"
b0 3"
b10011 8"
b0 )
b0 R"
b0 /#
b10010011 .
b10010011 ."
b10010011 0"
b10010011 ="
b10010011 /"
b1001100 *
b1001100 Q"
b1001100 Z"
b1001100 ["
b0 ,
b0 X
b0 P"
b0 T"
b0 U"
b1000 f"
1!
#160000
0!
#170000
b1 <
b1 J"
b1 g"
b10 G"
b0 E"
b0 K"
0A"
b0 D"
b0 C"
b10011 I"
b0 $
b0 l"
b0 0#
b0 1#
b10010011 -
b10010011 >"
b10010011 @"
b10010011 ?"
b1001 f"
1!
#180000
0!
#190000
b0 n"
b100010011 2
b100010011 h
b100010011 k
b1001100 (
b1001100 Z
b1001100 i
b1001100 d"
b1001100 e"
b1010 f"
1!
#200000
0!
#210000
b1010000 '
b1010000 a"
b1010000 b"
b10 v
b1010000 1
b1010000 f
b1010000 ^"
b1010000 _"
b1001100 8
b1001100 I
b1001100 Y
b1001100 [
b1001100 ]"
b100010011 0
b100010011 l
b100010011 n
b100010011 z
b100010011 m
b1011 f"
1!
#220000
0!
#230000
b10 )"
b100010011 /
b100010011 {
b100010011 }
b100010011 -"
b100010011 |
b1010000 3
b1010000 e
b1010000 Y"
b1010000 g
b1100 f"
1!
#240000
0!
#250000
b10 9"
b1010000 *
b1010000 Q"
b1010000 Z"
b1010000 ["
b100010011 .
b100010011 ."
b100010011 0"
b100010011 ="
b100010011 /"
b1101 f"
1!
#260000
0!
#270000
b10 <
b10 J"
b10 g"
b100010011 -
b100010011 >"
b100010011 @"
b100010011 ?"
b1110 f"
1!
#280000
0!
#290000
b0 y"
b110010011 2
b110010011 h
b110010011 k
b1010000 (
b1010000 Z
b1010000 i
b1010000 d"
b1010000 e"
b1111 f"
1!
#300000
0!
#310000
b11 v
b1010100 '
b1010100 a"
b1010100 b"
b110010011 0
b110010011 l
b110010011 n
b110010011 z
b110010011 m
b1010100 1
b1010100 f
b1010100 ^"
b1010100 _"
b1010000 8
b1010000 I
b1010000 Y
b1010000 [
b1010000 ]"
b10000 f"
1!
#320000
0!
#330000
b11 )"
b1010100 3
b1010100 e
b1010100 Y"
b1010100 g
b110010011 /
b110010011 {
b110010011 }
b110010011 -"
b110010011 |
b10001 f"
1!
#340000
0!
#350000
b11 9"
b110010011 .
b110010011 ."
b110010011 0"
b110010011 ="
b110010011 /"
b1010100 *
b1010100 Q"
b1010100 Z"
b1010100 ["
b10010 f"
1!
#360000
0!
#370000
b11 <
b11 J"
b11 g"
b110010011 -
b110010011 >"
b110010011 @"
b110010011 ?"
b10011 f"
1!
#380000
0!
#390000
b0 &#
b1000010011 2
b1000010011 h
b1000010011 k
b1010100 (
b1010100 Z
b1010100 i
b1010100 d"
b1010100 e"
b10100 f"
1!
#400000
0!
#410000
b1011000 '
b1011000 a"
b1011000 b"
b100 v
b1011000 1
b1011000 f
b1011000 ^"
b1011000 _"
b1010100 8
b1010100 I
b1010100 Y
b1010100 [
b1010100 ]"
b1000010011 0
b1000010011 l
b1000010011 n
b1000010011 z
b1000010011 m
b10101 f"
1!
#420000
0!
#430000
b100 )"
b1000010011 /
b1000010011 {
b1000010011 }
b1000010011 -"
b1000010011 |
b1011000 3
b1011000 e
b1011000 Y"
b1011000 g
b10110 f"
1!
#440000
0!
#450000
b100 9"
b1011000 *
b1011000 Q"
b1011000 Z"
b1011000 ["
b1000010011 .
b1000010011 ."
b1000010011 0"
b1000010011 ="
b1000010011 /"
b10111 f"
1!
#460000
0!
#470000
b100 <
b100 J"
b100 g"
b1000010011 -
b1000010011 >"
b1000010011 @"
b1000010011 ?"
b11000 f"
1!
#480000
0!
#490000
b0 )#
b1010010011 2
b1010010011 h
b1010010011 k
b1011000 (
b1011000 Z
b1011000 i
b1011000 d"
b1011000 e"
b11001 f"
1!
#500000
0!
#510000
b101 v
b1011100 '
b1011100 a"
b1011100 b"
b1010010011 0
b1010010011 l
b1010010011 n
b1010010011 z
b1010010011 m
b1011100 1
b1011100 f
b1011100 ^"
b1011100 _"
b1011000 8
b1011000 I
b1011000 Y
b1011000 [
b1011000 ]"
b11010 f"
1!
#520000
0!
#530000
b101 )"
b1011100 3
b1011100 e
b1011100 Y"
b1011100 g
b1010010011 /
b1010010011 {
b1010010011 }
b1010010011 -"
b1010010011 |
b11011 f"
1!
#540000
0!
#550000
b101 9"
b1010010011 .
b1010010011 ."
b1010010011 0"
b1010010011 ="
b1010010011 /"
b1011100 *
b1011100 Q"
b1011100 Z"
b1011100 ["
b11100 f"
1!
#560000
0!
#570000
b101 <
b101 J"
b101 g"
b1010010011 -
b1010010011 >"
b1010010011 @"
b1010010011 ?"
b11101 f"
1!
#580000
0!
#590000
b0 *#
b1100010011 2
b1100010011 h
b1100010011 k
b1011100 (
b1011100 Z
b1011100 i
b1011100 d"
b1011100 e"
b11110 f"
1!
#600000
0!
#610000
b1100000 '
b1100000 a"
b1100000 b"
b110 v
b1100000 1
b1100000 f
b1100000 ^"
b1100000 _"
b1011100 8
b1011100 I
b1011100 Y
b1011100 [
b1011100 ]"
b1100010011 0
b1100010011 l
b1100010011 n
b1100010011 z
b1100010011 m
b11111 f"
1!
#620000
0!
#630000
b110 )"
b1100010011 /
b1100010011 {
b1100010011 }
b1100010011 -"
b1100010011 |
b1100000 3
b1100000 e
b1100000 Y"
b1100000 g
b100000 f"
1!
#640000
0!
#650000
b110 9"
b1100000 *
b1100000 Q"
b1100000 Z"
b1100000 ["
b1100010011 .
b1100010011 ."
b1100010011 0"
b1100010011 ="
b1100010011 /"
b100001 f"
1!
#660000
0!
#670000
b110 <
b110 J"
b110 g"
b1100010011 -
b1100010011 >"
b1100010011 @"
b1100010011 ?"
b100010 f"
1!
#680000
0!
#690000
b0 +#
b1110010011 2
b1110010011 h
b1110010011 k
b1100000 (
b1100000 Z
b1100000 i
b1100000 d"
b1100000 e"
b100011 f"
1!
#700000
0!
#710000
b111 v
b1100100 '
b1100100 a"
b1100100 b"
b1110010011 0
b1110010011 l
b1110010011 n
b1110010011 z
b1110010011 m
b1100100 1
b1100100 f
b1100100 ^"
b1100100 _"
b1100000 8
b1100000 I
b1100000 Y
b1100000 [
b1100000 ]"
b100100 f"
1!
#720000
0!
#730000
b111 )"
b1100100 3
b1100100 e
b1100100 Y"
b1100100 g
b1110010011 /
b1110010011 {
b1110010011 }
b1110010011 -"
b1110010011 |
b100101 f"
1!
#740000
0!
#750000
b111 9"
b1110010011 .
b1110010011 ."
b1110010011 0"
b1110010011 ="
b1110010011 /"
b1100100 *
b1100100 Q"
b1100100 Z"
b1100100 ["
b100110 f"
1!
#760000
0!
#770000
b111 <
b111 J"
b111 g"
b1110010011 -
b1110010011 >"
b1110010011 @"
b1110010011 ?"
b100111 f"
1!
#780000
0!
#790000
b0 ,#
b10000010011 2
b10000010011 h
b10000010011 k
b1100100 (
b1100100 Z
b1100100 i
b1100100 d"
b1100100 e"
b101000 f"
1!
#800000
0!
#810000
b1101000 '
b1101000 a"
b1101000 b"
b1000 v
b1101000 1
b1101000 f
b1101000 ^"
b1101000 _"
b1100100 8
b1100100 I
b1100100 Y
b1100100 [
b1100100 ]"
b10000010011 0
b10000010011 l
b10000010011 n
b10000010011 z
b10000010011 m
b101001 f"
1!
#820000
0!
#830000
b1000 )"
b10000010011 /
b10000010011 {
b10000010011 }
b10000010011 -"
b10000010011 |
b1101000 3
b1101000 e
b1101000 Y"
b1101000 g
b101010 f"
1!
#840000
0!
#850000
b1000 9"
b1101000 *
b1101000 Q"
b1101000 Z"
b1101000 ["
b10000010011 .
b10000010011 ."
b10000010011 0"
b10000010011 ="
b10000010011 /"
b101011 f"
1!
#860000
0!
#870000
b1000 <
b1000 J"
b1000 g"
b10000010011 -
b10000010011 >"
b10000010011 @"
b10000010011 ?"
b101100 f"
1!
#880000
0!
#890000
b0 -#
b10010010011 2
b10010010011 h
b10010010011 k
b1101000 (
b1101000 Z
b1101000 i
b1101000 d"
b1101000 e"
b101101 f"
1!
#900000
0!
#910000
b1001 v
b1101100 '
b1101100 a"
b1101100 b"
b10010010011 0
b10010010011 l
b10010010011 n
b10010010011 z
b10010010011 m
b1101100 1
b1101100 f
b1101100 ^"
b1101100 _"
b1101000 8
b1101000 I
b1101000 Y
b1101000 [
b1101000 ]"
b101110 f"
1!
#920000
0!
#930000
b1001 )"
b1101100 3
b1101100 e
b1101100 Y"
b1101100 g
b10010010011 /
b10010010011 {
b10010010011 }
b10010010011 -"
b10010010011 |
b101111 f"
1!
#940000
0!
#950000
b1001 9"
b10010010011 .
b10010010011 ."
b10010010011 0"
b10010010011 ="
b10010010011 /"
b1101100 *
b1101100 Q"
b1101100 Z"
b1101100 ["
b110000 f"
1!
#960000
0!
#970000
b1001 <
b1001 J"
b1001 g"
b10010010011 -
b10010010011 >"
b10010010011 @"
b10010010011 ?"
b110001 f"
1!
#980000
0!
#990000
b0 .#
b10100010011 2
b10100010011 h
b10100010011 k
b1101100 (
b1101100 Z
b1101100 i
b1101100 d"
b1101100 e"
b110010 f"
1!
#1000000
0!
#1010000
b1110000 '
b1110000 a"
b1110000 b"
b1010 v
b1110000 1
b1110000 f
b1110000 ^"
b1110000 _"
b1101100 8
b1101100 I
b1101100 Y
b1101100 [
b1101100 ]"
b10100010011 0
b10100010011 l
b10100010011 n
b10100010011 z
b10100010011 m
b110011 f"
1!
#1020000
0!
#1030000
b1010 )"
b10100010011 /
b10100010011 {
b10100010011 }
b10100010011 -"
b10100010011 |
b1110000 3
b1110000 e
b1110000 Y"
b1110000 g
b110100 f"
1!
#1040000
0!
#1050000
b1010 9"
b1110000 *
b1110000 Q"
b1110000 Z"
b1110000 ["
b10100010011 .
b10100010011 ."
b10100010011 0"
b10100010011 ="
b10100010011 /"
b110101 f"
1!
#1060000
0!
#1070000
b1010 <
b1010 J"
b1010 g"
b10100010011 -
b10100010011 >"
b10100010011 @"
b10100010011 ?"
b110110 f"
1!
#1080000
0!
#1090000
b0 o"
b10110010011 2
b10110010011 h
b10110010011 k
b1110000 (
b1110000 Z
b1110000 i
b1110000 d"
b1110000 e"
b110111 f"
1!
#1100000
0!
#1110000
b1011 v
b1110100 '
b1110100 a"
b1110100 b"
b10110010011 0
b10110010011 l
b10110010011 n
b10110010011 z
b10110010011 m
b1110100 1
b1110100 f
b1110100 ^"
b1110100 _"
b1110000 8
b1110000 I
b1110000 Y
b1110000 [
b1110000 ]"
b111000 f"
1!
#1120000
0!
#1130000
b1011 )"
b1110100 3
b1110100 e
b1110100 Y"
b1110100 g
b10110010011 /
b10110010011 {
b10110010011 }
b10110010011 -"
b10110010011 |
b111001 f"
1!
#1140000
0!
#1150000
b1011 9"
b10110010011 .
b10110010011 ."
b10110010011 0"
b10110010011 ="
b10110010011 /"
b1110100 *
b1110100 Q"
b1110100 Z"
b1110100 ["
b111010 f"
1!
#1160000
0!
#1170000
b1011 <
b1011 J"
b1011 g"
b10110010011 -
b10110010011 >"
b10110010011 @"
b10110010011 ?"
b111011 f"
1!
#1180000
0!
#1190000
b0 p"
b11000010011 2
b11000010011 h
b11000010011 k
b1110100 (
b1110100 Z
b1110100 i
b1110100 d"
b1110100 e"
b111100 f"
1!
#1200000
0!
#1210000
b1111000 '
b1111000 a"
b1111000 b"
b1100 v
b1111000 1
b1111000 f
b1111000 ^"
b1111000 _"
b1110100 8
b1110100 I
b1110100 Y
b1110100 [
b1110100 ]"
b11000010011 0
b11000010011 l
b11000010011 n
b11000010011 z
b11000010011 m
b111101 f"
1!
#1220000
0!
#1230000
b1100 )"
b11000010011 /
b11000010011 {
b11000010011 }
b11000010011 -"
b11000010011 |
b1111000 3
b1111000 e
b1111000 Y"
b1111000 g
b111110 f"
1!
#1240000
0!
#1250000
b1100 9"
b1111000 *
b1111000 Q"
b1111000 Z"
b1111000 ["
b11000010011 .
b11000010011 ."
b11000010011 0"
b11000010011 ="
b11000010011 /"
b111111 f"
1!
#1260000
0!
#1270000
b1100 <
b1100 J"
b1100 g"
b11000010011 -
b11000010011 >"
b11000010011 @"
b11000010011 ?"
b1000000 f"
1!
#1280000
0!
#1290000
b0 q"
b11010010011 2
b11010010011 h
b11010010011 k
b1111000 (
b1111000 Z
b1111000 i
b1111000 d"
b1111000 e"
b1000001 f"
1!
#1300000
0!
#1310000
b1101 v
b1111100 '
b1111100 a"
b1111100 b"
b11010010011 0
b11010010011 l
b11010010011 n
b11010010011 z
b11010010011 m
b1111100 1
b1111100 f
b1111100 ^"
b1111100 _"
b1111000 8
b1111000 I
b1111000 Y
b1111000 [
b1111000 ]"
b1000010 f"
1!
#1320000
0!
#1330000
b1101 )"
b1111100 3
b1111100 e
b1111100 Y"
b1111100 g
b11010010011 /
b11010010011 {
b11010010011 }
b11010010011 -"
b11010010011 |
b1000011 f"
1!
#1340000
0!
#1350000
b1101 9"
b11010010011 .
b11010010011 ."
b11010010011 0"
b11010010011 ="
b11010010011 /"
b1111100 *
b1111100 Q"
b1111100 Z"
b1111100 ["
b1000100 f"
1!
#1360000
0!
#1370000
b1101 <
b1101 J"
b1101 g"
b11010010011 -
b11010010011 >"
b11010010011 @"
b11010010011 ?"
b1000101 f"
1!
#1380000
0!
#1390000
b0 r"
b11100010011 2
b11100010011 h
b11100010011 k
b1111100 (
b1111100 Z
b1111100 i
b1111100 d"
b1111100 e"
b1000110 f"
1!
#1400000
0!
#1410000
b10000000 '
b10000000 a"
b10000000 b"
b1110 v
b10000000 1
b10000000 f
b10000000 ^"
b10000000 _"
b1111100 8
b1111100 I
b1111100 Y
b1111100 [
b1111100 ]"
b11100010011 0
b11100010011 l
b11100010011 n
b11100010011 z
b11100010011 m
b1000111 f"
1!
#1420000
0!
#1430000
b1110 )"
b11100010011 /
b11100010011 {
b11100010011 }
b11100010011 -"
b11100010011 |
b10000000 3
b10000000 e
b10000000 Y"
b10000000 g
b1001000 f"
1!
#1440000
0!
#1450000
b1110 9"
b10000000 *
b10000000 Q"
b10000000 Z"
b10000000 ["
b11100010011 .
b11100010011 ."
b11100010011 0"
b11100010011 ="
b11100010011 /"
b1001001 f"
1!
#1460000
0!
#1470000
b1110 <
b1110 J"
b1110 g"
b11100010011 -
b11100010011 >"
b11100010011 @"
b11100010011 ?"
b1001010 f"
1!
#1480000
0!
