section_3/cpu.vcd
$date
	Sat Jan 21 14:38:21 2023
$end
$version
	Icarus Verilog
$end
$timescale
	1ps
$end
$scope module cpuTB $end
$var reg 1 ! clk $end
$var reg 1 " reset $end
$scope module riscv $end
$var wire 1 ! clk $end
$var wire 1 " reset $end
$var wire 1 # zero $end
$var wire 32 $ wbuff [31:0] $end
$var wire 32 % rs2 [31:0] $end
$var wire 32 & rs1 [31:0] $end
$var wire 32 ' pcmux [31:0] $end
$var wire 32 ( pc [31:0] $end
$var wire 32 ) memmux [31:0] $end
$var wire 32 * mbuff3 [31:0] $end
$var wire 32 + mbuff2 [31:0] $end
$var wire 32 , mbuff1 [31:0] $end
$var wire 32 - ir4 [31:0] $end
$var wire 32 . ir3 [31:0] $end
$var wire 32 / ir2 [31:0] $end
$var wire 32 0 ir1 [31:0] $end
$var wire 32 1 incr [31:0] $end
$var wire 32 2 imem [31:0] $end
$var wire 32 3 ebuff5 [31:0] $end
$var wire 32 4 ebuff4 [31:0] $end
$var wire 32 5 ebuff3 [31:0] $end
$var wire 32 6 ebuff2 [31:0] $end
$var wire 32 7 ebuff1 [31:0] $end
$var wire 32 8 dmem [31:0] $end
$var wire 32 9 dbuff [31:0] $end
$var wire 5 : c_rs2 [4:0] $end
$var wire 5 ; c_rs1 [4:0] $end
$var wire 1 < c_regwrite $end
$var wire 5 = c_rd [4:0] $end
$var wire 7 > c_opcode [6:0] $end
$var wire 1 ? c_memwrite $end
$var wire 2 @ c_memsel [1:0] $end
$var wire 2 A c_memarea [1:0] $end
$var wire 32 B c_imm [31:0] $end
$var wire 7 C c_funct7 [6:0] $end
$var wire 3 D c_funct3 [2:0] $end
$var wire 32 E alu [31:0] $end
$scope module aluModule $end
$var wire 32 F rs2 [31:0] $end
$var wire 32 G rs1 [31:0] $end
$var wire 32 H pc [31:0] $end
$var wire 7 I opcode [6:0] $end
$var wire 32 J imm [31:0] $end
$var wire 7 K funct7 [6:0] $end
$var wire 3 L funct3 [2:0] $end
$var reg 32 M out [31:0] $end
$var reg 1 # zero $end
$upscope $end
$scope module dataMemoryModule $end
$var wire 1 ! clk $end
$var wire 1 ? write $end
$var wire 32 N dataout [31:0] $end
$var wire 32 O datain [31:0] $end
$var wire 2 P area [1:0] $end
$var wire 32 Q address [31:0] $end
$upscope $end
$scope module decodeBufferModule $end
$var wire 1 ! clk $end
$var wire 32 R in2 [31:0] $end
$var wire 32 S in3 [31:0] $end
$var wire 32 T in4 [31:0] $end
$var wire 32 U in5 [31:0] $end
$var wire 32 V out0 [31:0] $end
$var wire 32 W out1 [31:0] $end
$var wire 32 X out2 [31:0] $end
$var wire 32 Y out3 [31:0] $end
$var wire 32 Z out4 [31:0] $end
$var wire 32 [ out5 [31:0] $end
$var wire 32 \ in1 [31:0] $end
$var wire 32 ] in0 [31:0] $end
$var reg 32 ^ buffer0 [31:0] $end
$var reg 32 _ buffer1 [31:0] $end
$var reg 32 ` buffer2 [31:0] $end
$var reg 32 a buffer3 [31:0] $end
$var reg 32 b buffer4 [31:0] $end
$var reg 32 c buffer5 [31:0] $end
$upscope $end
$scope module executeBufferModule $end
$var wire 1 ! clk $end
$var wire 32 d in0 [31:0] $end
$var wire 32 e in1 [31:0] $end
$var wire 32 f out0 [31:0] $end
$var wire 32 g out1 [31:0] $end
$var wire 32 h out2 [31:0] $end
$var wire 32 i out3 [31:0] $end
$var wire 32 j out4 [31:0] $end
$var wire 32 k out5 [31:0] $end
$var wire 32 l in5 [31:0] $end
$var wire 32 m in4 [31:0] $end
$var wire 32 n in3 [31:0] $end
$var wire 32 o in2 [31:0] $end
$var reg 32 p buffer0 [31:0] $end
$var reg 32 q buffer1 [31:0] $end
$var reg 32 r buffer2 [31:0] $end
$var reg 32 s buffer3 [31:0] $end
$var reg 32 t buffer4 [31:0] $end
$var reg 32 u buffer5 [31:0] $end
$upscope $end
$scope module instructionMemoryModule $end
$var wire 32 v instruction [31:0] $end
$var wire 32 w address [31:0] $end
$var integer 32 x i [31:0] $end
$upscope $end
$scope module ir1ControlModule $end
$var wire 32 y ins [31:0] $end
$var reg 3 z funct3 [2:0] $end
$var reg 7 { funct7 [6:0] $end
$var reg 32 | imm [31:0] $end
$var reg 2 } memarea [1:0] $end
$var reg 2 ~ memsel [1:0] $end
$var reg 1 !" memwrite $end
$var reg 7 "" opcode [6:0] $end
$var reg 5 #" rd [4:0] $end
$var reg 1 $" regwrite $end
$var reg 5 %" rs1 [4:0] $end
$var reg 5 &" rs2 [4:0] $end
$upscope $end
$scope module ir2ControlModule $end
$var wire 32 '" ins [31:0] $end
$var reg 3 (" funct3 [2:0] $end
$var reg 7 )" funct7 [6:0] $end
$var reg 32 *" imm [31:0] $end
$var reg 2 +" memarea [1:0] $end
$var reg 2 ," memsel [1:0] $end
$var reg 1 -" memwrite $end
$var reg 7 ." opcode [6:0] $end
$var reg 5 /" rd [4:0] $end
$var reg 1 0" regwrite $end
$var reg 5 1" rs1 [4:0] $end
$var reg 5 2" rs2 [4:0] $end
$upscope $end
$scope module ir3ControlModule $end
$var wire 32 3" ins [31:0] $end
$var reg 3 4" funct3 [2:0] $end
$var reg 7 5" funct7 [6:0] $end
$var reg 32 6" imm [31:0] $end
$var reg 2 7" memarea [1:0] $end
$var reg 2 8" memsel [1:0] $end
$var reg 1 ? memwrite $end
$var reg 7 9" opcode [6:0] $end
$var reg 5 :" rd [4:0] $end
$var reg 1 ;" regwrite $end
$var reg 5 <" rs1 [4:0] $end
$var reg 5 =" rs2 [4:0] $end
$upscope $end
$scope module ir4ControlModule $end
$var wire 32 >" ins [31:0] $end
$var reg 3 ?" funct3 [2:0] $end
$var reg 7 @" funct7 [6:0] $end
$var reg 32 A" imm [31:0] $end
$var reg 2 B" memarea [1:0] $end
$var reg 2 C" memsel [1:0] $end
$var reg 1 D" memwrite $end
$var reg 7 E" opcode [6:0] $end
$var reg 5 F" rd [4:0] $end
$var reg 1 < regwrite $end
$var reg 5 G" rs1 [4:0] $end
$var reg 5 H" rs2 [4:0] $end
$upscope $end
$scope module memMultiplexerModule $end
$var wire 32 I" in2 [31:0] $end
$var wire 32 J" in4 [31:0] $end
$var wire 2 K" sel [1:0] $end
$var wire 32 L" in3 [31:0] $end
$var wire 32 M" in1 [31:0] $end
$var reg 32 N" out [31:0] $end
$upscope $end
$scope module memoryBufferModule $end
$var wire 1 ! clk $end
$var wire 32 O" in0 [31:0] $end
$var wire 32 P" in1 [31:0] $end
$var wire 32 Q" in2 [31:0] $end
$var wire 32 R" in3 [31:0] $end
$var wire 32 S" in4 [31:0] $end
$var wire 32 T" in5 [31:0] $end
$var wire 32 U" out0 [31:0] $end
$var wire 32 V" out1 [31:0] $end
$var wire 32 W" out2 [31:0] $end
$var wire 32 X" out3 [31:0] $end
$var wire 32 Y" out4 [31:0] $end
$var wire 32 Z" out5 [31:0] $end
$var reg 32 [" buffer0 [31:0] $end
$var reg 32 \" buffer1 [31:0] $end
$var reg 32 ]" buffer2 [31:0] $end
$var reg 32 ^" buffer3 [31:0] $end
$var reg 32 _" buffer4 [31:0] $end
$var reg 32 `" buffer5 [31:0] $end
$upscope $end
$scope module pcIncrementModule $end
$var wire 32 a" in1 [31:0] $end
$var wire 32 b" in2 [31:0] $end
$var wire 32 c" out [31:0] $end
$upscope $end
$scope module pcMultiplexerModule $end
$var wire 32 d" in1 [31:0] $end
$var wire 32 e" in2 [31:0] $end
$var wire 1 # sel $end
$var reg 32 f" out [31:0] $end
$upscope $end
$scope module pcRegisterModule $end
$var wire 1 ! clk $end
$var wire 32 g" in [31:0] $end
$var wire 1 h" reset $end
$var wire 32 i" out [31:0] $end
$var reg 32 j" pc [31:0] $end
$var integer 32 k" i [31:0] $end
$upscope $end
$scope module registerBankModule $end
$var wire 1 ! clk $end
$var wire 5 l" rdaddr [4:0] $end
$var wire 1 < regwrite $end
$var wire 32 m" rs1 [31:0] $end
$var wire 5 n" rs1addr [4:0] $end
$var wire 32 o" rs2 [31:0] $end
$var wire 5 p" rs2addr [4:0] $end
$var wire 32 q" rddata [31:0] $end
$var reg 32 r" reg0 [31:0] $end
$var reg 32 s" reg1 [31:0] $end
$var reg 32 t" reg10 [31:0] $end
$var reg 32 u" reg11 [31:0] $end
$var reg 32 v" reg12 [31:0] $end
$var reg 32 w" reg13 [31:0] $end
$var reg 32 x" reg14 [31:0] $end
$var reg 32 y" reg15 [31:0] $end
$var reg 32 z" reg16 [31:0] $end
$var reg 32 {" reg17 [31:0] $end
$var reg 32 |" reg18 [31:0] $end
$var reg 32 }" reg19 [31:0] $end
$var reg 32 ~" reg2 [31:0] $end
$var reg 32 !# reg20 [31:0] $end
$var reg 32 "# reg21 [31:0] $end
$var reg 32 ## reg22 [31:0] $end
$var reg 32 $# reg23 [31:0] $end
$var reg 32 %# reg24 [31:0] $end
$var reg 32 &# reg25 [31:0] $end
$var reg 32 '# reg26 [31:0] $end
$var reg 32 (# reg27 [31:0] $end
$var reg 32 )# reg28 [31:0] $end
$var reg 32 *# reg29 [31:0] $end
$var reg 32 +# reg3 [31:0] $end
$var reg 32 ,# reg30 [31:0] $end
$var reg 32 -# reg31 [31:0] $end
$var reg 32 .# reg4 [31:0] $end
$var reg 32 /# reg5 [31:0] $end
$var reg 32 0# reg6 [31:0] $end
$var reg 32 1# reg7 [31:0] $end
$var reg 32 2# reg8 [31:0] $end
$var reg 32 3# reg9 [31:0] $end
$upscope $end
$scope module writebackBufferModule $end
$var wire 1 ! clk $end
$var wire 32 4# in0 [31:0] $end
$var wire 32 5# in1 [31:0] $end
$var wire 32 6# in2 [31:0] $end
$var wire 32 7# in3 [31:0] $end
$var wire 32 8# in4 [31:0] $end
$var wire 32 9# in5 [31:0] $end
$var wire 32 :# out0 [31:0] $end
$var wire 32 ;# out1 [31:0] $end
$var wire 32 <# out2 [31:0] $end
$var wire 32 =# out3 [31:0] $end
$var wire 32 ># out4 [31:0] $end
$var wire 32 ?# out5 [31:0] $end
$var reg 32 @# buffer0 [31:0] $end
$var reg 32 A# buffer1 [31:0] $end
$var reg 32 B# buffer2 [31:0] $end
$var reg 32 C# buffer3 [31:0] $end
$var reg 32 D# buffer4 [31:0] $end
$var reg 32 E# buffer5 [31:0] $end
$upscope $end
$upscope $end
$upscope $end
$enddefinitions $end
#0
$dumpvars
bx E#
bx D#
bx C#
bx B#
bx A#
bx @#
bx ?#
bx >#
bx =#
bx <#
bx ;#
bx :#
bz 9#
bz 8#
bz 7#
bz 6#
bx 5#
bx 4#
bx 3#
bx 2#
bx 1#
bx 0#
bx /#
bx .#
bx -#
bx ,#
bx +#
bx *#
bx )#
bx (#
bx '#
bx &#
bx %#
bx $#
bx ##
bx "#
bx !#
bx ~"
bx }"
bx |"
bx {"
bx z"
bx y"
bx x"
bx w"
bx v"
bx u"
bx t"
bx s"
b0 r"
bx q"
bx p"
bx o"
bx n"
bx m"
bx l"
b0 k"
b0 j"
b0 i"
zh"
bx g"
bx f"
bx e"
bx d"
bx c"
bx b"
b100 a"
bx `"
bx _"
bx ^"
bx ]"
bx \"
bx ["
bx Z"
bx Y"
bx X"
bx W"
bx V"
bx U"
bz T"
bz S"
bx R"
bx Q"
bx P"
bx O"
bx N"
bx M"
bx L"
bx K"
bz J"
b0x I"
bx H"
bx G"
bx F"
bx E"
xD"
bx C"
bx B"
bx A"
bx @"
bx ?"
bx >"
bx ="
bx <"
x;"
bx :"
bx 9"
bx 8"
bx 7"
bx 6"
bx 5"
bx 4"
bx 3"
bx 2"
bx 1"
x0"
bx /"
bx ."
x-"
bx ,"
bx +"
bx *"
bx )"
bx ("
bx '"
bx &"
bx %"
x$"
bx #"
bx ""
x!"
bx ~
bx }
bx |
bx {
bx z
bx y
b1000000000 x
b0 w
b100100000000000000001101111 v
bx u
bx t
bx s
bx r
bx q
bx p
bx o
bx n
bx m
bx l
bx k
bx j
bx i
bx h
bx g
bx f
bx e
bx d
bx c
bx b
bx a
bx `
bx _
bx ^
b100100000000000000001101111 ]
b0 \
bx [
bx Z
bx Y
bx X
bx W
bx V
bz U
bz T
bz S
bz R
bx Q
bx P
bx O
b0x N
bx M
bx L
bx K
bx J
bx I
bx H
bx G
bx F
bx E
bx D
bx C
bx B
bx A
bx @
x?
bx >
bx =
x<
bx ;
bx :
bx 9
b0x 8
bx 7
bx 6
bx 5
bx 4
bx 3
b100100000000000000001101111 2
bx 1
bx 0
bx /
bx .
bx -
bx ,
bx +
bx *
bx )
b0 (
bx '
bx &
bx %
bx $
x#
0"
0!
$end
#10000
b0 #"
1$"
b0 ~
bz }
0!"
b1001000 B
b1001000 m
b1001000 |
bz :
bz &"
bz p"
bz ;
bz %"
bz n"
b10 {
bz z
b1101111 ""
bz [
bz c
bz Z
bz b
bz Y
bz a
bz X
bz `
b100 1
b100 l
b100 c"
b100 d"
b0 9
b0 W
b0 _
b0 e
b0 b"
b100100000000000000001101111 0
b100100000000000000001101111 V
b100100000000000000001101111 d
b100100000000000000001101111 y
b100100000000000000001101111 ^
bz Z"
bz `"
bz Y"
bz _"
bz ?#
bz E#
bz >#
bz D#
bz =#
bz C#
bz <#
bz B#
b1 k"
1!
#20000
0!
#30000
b1001000 '
b1001000 f"
b1001000 g"
b1001000 E
b1001000 M
b1001000 P"
b1001000 e"
1#
b0 /"
10"
b0 ,"
bz +"
0-"
b1001000 *"
bz 2"
bz 1"
b10 C
b10 K
b10 )"
bz D
bz L
bz ("
b1101111 >
b1101111 I
b1101111 ."
b100 3
b100 k
b100 R"
b100 u
b1001000 4
b1001000 J
b1001000 j
b1001000 t
b0 7
b0 H
b0 g
b0 q
b100100000000000000001101111 /
b100100000000000000001101111 f
b100100000000000000001101111 '"
b100100000000000000001101111 O"
b100100000000000000001101111 p
b10 k"
1!
#40000
0!
#50000
b100 )
b100 N"
b100 5#
b0 :"
1;"
b0 @
b0 8"
b0 K"
bz A
bz P
bz 7"
0?
b1001000 6"
bz ="
bz <"
b10 5"
bz 4"
b1101111 9"
b100 *
b100 M"
b100 X"
b100 ^"
b1001000 ,
b1001000 Q
b1001000 L"
b1001000 V"
b1001000 \"
b100100000000000000001101111 .
b100100000000000000001101111 3"
b100100000000000000001101111 U"
b100100000000000000001101111 4#
b100100000000000000001101111 ["
b11 k"
1!
#60000
0!
#70000
b0 =
b0 F"
b0 l"
1<
b0 C"
bz B"
0D"
b1001000 A"
bz H"
bz G"
b10 @"
bz ?"
b1101111 E"
b100 $
b100 q"
b100 ;#
b100 A#
b100100000000000000001101111 -
b100100000000000000001101111 >"
b100100000000000000001101111 :#
b100100000000000000001101111 @#
b100 k"
1!
#80000
0!
#90000
b10010011 2
b10010011 ]
b10010011 v
b1001000 (
b1001000 \
b1001000 w
b1001000 i"
b1001000 j"
b101 k"
1!
#100000
0!
#110000
b1 #"
b10 ~
b0 B
b0 m
b0 |
b0 &
b0 o
b0 m"
b0 ;
b0 %"
b0 n"
b0 {
b0 z
b10011 ""
b1001100 1
b1001100 l
b1001100 c"
b1001100 d"
b1001000 9
b1001000 W
b1001000 _
b1001000 e
b1001000 b"
b10010011 0
b10010011 V
b10010011 d
b10010011 y
b10010011 ^
b110 k"
1!
#120000
0!
#130000
b1001100 '
b1001100 f"
b1001100 g"
b0 E
b0 M
b0 P"
b0 e"
0#
b1 /"
b10 ,"
b0 *"
b0 1"
b0 C
b0 K
b0 )"
b0 D
b0 L
b0 ("
b10011 >
b10011 I
b10011 ."
b1001100 3
b1001100 k
b1001100 R"
b1001100 u
b0 4
b0 J
b0 j
b0 t
b0 6
b0 G
b0 h
b0 r
b1001000 7
b1001000 H
b1001000 g
b1001000 q
b10010011 /
b10010011 f
b10010011 '"
b10010011 O"
b10010011 p
b111 k"
1!
#140000
0!
#150000
b0 )
b0 N"
b0 5#
b1 :"
b10 @
b10 8"
b10 K"
b0 6"
b0 <"
b0 5"
b0 4"
b10011 9"
b1001100 *
b1001100 M"
b1001100 X"
b1001100 ^"
b0 ,
b0 Q
b0 L"
b0 V"
b0 \"
b10010011 .
b10010011 3"
b10010011 U"
b10010011 4#
b10010011 ["
b1000 k"
1!
#160000
0!
#170000
b1 =
b1 F"
b1 l"
b10 C"
b0 A"
b0 G"
b0 @"
b0 ?"
b10011 E"
b0 $
b0 q"
b0 ;#
b0 A#
b10010011 -
b10010011 >"
b10010011 :#
b10010011 @#
b1001 k"
1!
#180000
0!
#190000
b0 s"
b100010011 2
b100010011 ]
b100010011 v
b1001100 (
b1001100 \
b1001100 w
b1001100 i"
b1001100 j"
b1010 k"
1!
#200000
0!
#210000
b1010000 '
b1010000 f"
b1010000 g"
b10 #"
b1010000 1
b1010000 l
b1010000 c"
b1010000 d"
b1001100 9
b1001100 W
b1001100 _
b1001100 e
b1001100 b"
b100010011 0
b100010011 V
b100010011 d
b100010011 y
b100010011 ^
b1011 k"
1!
#220000
0!
#230000
b10 /"
b1010000 3
b1010000 k
b1010000 R"
b1010000 u
b1001100 7
b1001100 H
b1001100 g
b1001100 q
b100010011 /
b100010011 f
b100010011 '"
b100010011 O"
b100010011 p
b1100 k"
1!
#240000
0!
#250000
b10 :"
b1010000 *
b1010000 M"
b1010000 X"
b1010000 ^"
b100010011 .
b100010011 3"
b100010011 U"
b100010011 4#
b100010011 ["
b1101 k"
1!
#260000
0!
#270000
b10 =
b10 F"
b10 l"
b100010011 -
b100010011 >"
b100010011 :#
b100010011 @#
b1110 k"
1!
#280000
0!
#290000
b0 ~"
b110010011 2
b110010011 ]
b110010011 v
b1010000 (
b1010000 \
b1010000 w
b1010000 i"
b1010000 j"
b1111 k"
1!
#300000
0!
#310000
b1010100 '
b1010100 f"
b1010100 g"
b11 #"
b1010100 1
b1010100 l
b1010100 c"
b1010100 d"
b1010000 9
b1010000 W
b1010000 _
b1010000 e
b1010000 b"
b110010011 0
b110010011 V
b110010011 d
b110010011 y
b110010011 ^
b10000 k"
1!
#320000
0!
#330000
b11 /"
b1010100 3
b1010100 k
b1010100 R"
b1010100 u
b1010000 7
b1010000 H
b1010000 g
b1010000 q
b110010011 /
b110010011 f
b110010011 '"
b110010011 O"
b110010011 p
b10001 k"
1!
#340000
0!
#350000
b11 :"
b1010100 *
b1010100 M"
b1010100 X"
b1010100 ^"
b110010011 .
b110010011 3"
b110010011 U"
b110010011 4#
b110010011 ["
b10010 k"
1!
#360000
0!
#370000
b11 =
b11 F"
b11 l"
b110010011 -
b110010011 >"
b110010011 :#
b110010011 @#
b10011 k"
1!
#380000
0!
#390000
b0 +#
b1000010011 2
b1000010011 ]
b1000010011 v
b1010100 (
b1010100 \
b1010100 w
b1010100 i"
b1010100 j"
b10100 k"
1!
#400000
0!
#410000
b1011000 '
b1011000 f"
b1011000 g"
b100 #"
b1011000 1
b1011000 l
b1011000 c"
b1011000 d"
b1010100 9
b1010100 W
b1010100 _
b1010100 e
b1010100 b"
b1000010011 0
b1000010011 V
b1000010011 d
b1000010011 y
b1000010011 ^
b10101 k"
1!
#420000
0!
#430000
b100 /"
b1011000 3
b1011000 k
b1011000 R"
b1011000 u
b1010100 7
b1010100 H
b1010100 g
b1010100 q
b1000010011 /
b1000010011 f
b1000010011 '"
b1000010011 O"
b1000010011 p
b10110 k"
1!
#440000
0!
#450000
b100 :"
b1011000 *
b1011000 M"
b1011000 X"
b1011000 ^"
b1000010011 .
b1000010011 3"
b1000010011 U"
b1000010011 4#
b1000010011 ["
b10111 k"
1!
#460000
0!
#470000
b100 =
b100 F"
b100 l"
b1000010011 -
b1000010011 >"
b1000010011 :#
b1000010011 @#
b11000 k"
1!
#480000
0!
#490000
b0 .#
b1010010011 2
b1010010011 ]
b1010010011 v
b1011000 (
b1011000 \
b1011000 w
b1011000 i"
b1011000 j"
b11001 k"
1!
#500000
0!
#510000
b1011100 '
b1011100 f"
b1011100 g"
b101 #"
b1011100 1
b1011100 l
b1011100 c"
b1011100 d"
b1011000 9
b1011000 W
b1011000 _
b1011000 e
b1011000 b"
b1010010011 0
b1010010011 V
b1010010011 d
b1010010011 y
b1010010011 ^
b11010 k"
1!
#520000
0!
#530000
b101 /"
b1011100 3
b1011100 k
b1011100 R"
b1011100 u
b1011000 7
b1011000 H
b1011000 g
b1011000 q
b1010010011 /
b1010010011 f
b1010010011 '"
b1010010011 O"
b1010010011 p
b11011 k"
1!
#540000
0!
#550000
b101 :"
b1011100 *
b1011100 M"
b1011100 X"
b1011100 ^"
b1010010011 .
b1010010011 3"
b1010010011 U"
b1010010011 4#
b1010010011 ["
b11100 k"
1!
#560000
0!
#570000
b101 =
b101 F"
b101 l"
b1010010011 -
b1010010011 >"
b1010010011 :#
b1010010011 @#
b11101 k"
1!
#580000
0!
#590000
b0 /#
b1100010011 2
b1100010011 ]
b1100010011 v
b1011100 (
b1011100 \
b1011100 w
b1011100 i"
b1011100 j"
b11110 k"
1!
#600000
0!
#610000
b1100000 '
b1100000 f"
b1100000 g"
b110 #"
b1100000 1
b1100000 l
b1100000 c"
b1100000 d"
b1011100 9
b1011100 W
b1011100 _
b1011100 e
b1011100 b"
b1100010011 0
b1100010011 V
b1100010011 d
b1100010011 y
b1100010011 ^
b11111 k"
1!
#620000
0!
#630000
b110 /"
b1100000 3
b1100000 k
b1100000 R"
b1100000 u
b1011100 7
b1011100 H
b1011100 g
b1011100 q
b1100010011 /
b1100010011 f
b1100010011 '"
b1100010011 O"
b1100010011 p
b100000 k"
1!
#640000
0!
#650000
b110 :"
b1100000 *
b1100000 M"
b1100000 X"
b1100000 ^"
b1100010011 .
b1100010011 3"
b1100010011 U"
b1100010011 4#
b1100010011 ["
b100001 k"
1!
#660000
0!
#670000
b110 =
b110 F"
b110 l"
b1100010011 -
b1100010011 >"
b1100010011 :#
b1100010011 @#
b100010 k"
1!
#680000
0!
#690000
b0 0#
b1110010011 2
b1110010011 ]
b1110010011 v
b1100000 (
b1100000 \
b1100000 w
b1100000 i"
b1100000 j"
b100011 k"
1!
#700000
0!
#710000
b1100100 '
b1100100 f"
b1100100 g"
b111 #"
b1100100 1
b1100100 l
b1100100 c"
b1100100 d"
b1100000 9
b1100000 W
b1100000 _
b1100000 e
b1100000 b"
b1110010011 0
b1110010011 V
b1110010011 d
b1110010011 y
b1110010011 ^
b100100 k"
1!
#720000
0!
#730000
b111 /"
b1100100 3
b1100100 k
b1100100 R"
b1100100 u
b1100000 7
b1100000 H
b1100000 g
b1100000 q
b1110010011 /
b1110010011 f
b1110010011 '"
b1110010011 O"
b1110010011 p
b100101 k"
1!
#740000
0!
#750000
b111 :"
b1100100 *
b1100100 M"
b1100100 X"
b1100100 ^"
b1110010011 .
b1110010011 3"
b1110010011 U"
b1110010011 4#
b1110010011 ["
b100110 k"
1!
#760000
0!
#770000
b111 =
b111 F"
b111 l"
b1110010011 -
b1110010011 >"
b1110010011 :#
b1110010011 @#
b100111 k"
1!
#780000
0!
#790000
b0 1#
b10000010011 2
b10000010011 ]
b10000010011 v
b1100100 (
b1100100 \
b1100100 w
b1100100 i"
b1100100 j"
b101000 k"
1!
#800000
0!
#810000
b1101000 '
b1101000 f"
b1101000 g"
b1000 #"
b1101000 1
b1101000 l
b1101000 c"
b1101000 d"
b1100100 9
b1100100 W
b1100100 _
b1100100 e
b1100100 b"
b10000010011 0
b10000010011 V
b10000010011 d
b10000010011 y
b10000010011 ^
b101001 k"
1!
#820000
0!
#830000
b1000 /"
b1101000 3
b1101000 k
b1101000 R"
b1101000 u
b1100100 7
b1100100 H
b1100100 g
b1100100 q
b10000010011 /
b10000010011 f
b10000010011 '"
b10000010011 O"
b10000010011 p
b101010 k"
1!
#840000
0!
#850000
b1000 :"
b1101000 *
b1101000 M"
b1101000 X"
b1101000 ^"
b10000010011 .
b10000010011 3"
b10000010011 U"
b10000010011 4#
b10000010011 ["
b101011 k"
1!
#860000
0!
#870000
b1000 =
b1000 F"
b1000 l"
b10000010011 -
b10000010011 >"
b10000010011 :#
b10000010011 @#
b101100 k"
1!
#880000
0!
#890000
b0 2#
b10010010011 2
b10010010011 ]
b10010010011 v
b1101000 (
b1101000 \
b1101000 w
b1101000 i"
b1101000 j"
b101101 k"
1!
#900000
0!
#910000
b1101100 '
b1101100 f"
b1101100 g"
b1001 #"
b1101100 1
b1101100 l
b1101100 c"
b1101100 d"
b1101000 9
b1101000 W
b1101000 _
b1101000 e
b1101000 b"
b10010010011 0
b10010010011 V
b10010010011 d
b10010010011 y
b10010010011 ^
b101110 k"
1!
#920000
0!
#930000
b1001 /"
b1101100 3
b1101100 k
b1101100 R"
b1101100 u
b1101000 7
b1101000 H
b1101000 g
b1101000 q
b10010010011 /
b10010010011 f
b10010010011 '"
b10010010011 O"
b10010010011 p
b101111 k"
1!
#940000
0!
#950000
b1001 :"
b1101100 *
b1101100 M"
b1101100 X"
b1101100 ^"
b10010010011 .
b10010010011 3"
b10010010011 U"
b10010010011 4#
b10010010011 ["
b110000 k"
1!
#960000
0!
#970000
b1001 =
b1001 F"
b1001 l"
b10010010011 -
b10010010011 >"
b10010010011 :#
b10010010011 @#
b110001 k"
1!
#980000
0!
#990000
b0 3#
b10100010011 2
b10100010011 ]
b10100010011 v
b1101100 (
b1101100 \
b1101100 w
b1101100 i"
b1101100 j"
b110010 k"
1!
#1000000
0!
#1010000
b1110000 '
b1110000 f"
b1110000 g"
b1010 #"
b1110000 1
b1110000 l
b1110000 c"
b1110000 d"
b1101100 9
b1101100 W
b1101100 _
b1101100 e
b1101100 b"
b10100010011 0
b10100010011 V
b10100010011 d
b10100010011 y
b10100010011 ^
b110011 k"
1!
#1020000
0!
#1030000
b1010 /"
b1110000 3
b1110000 k
b1110000 R"
b1110000 u
b1101100 7
b1101100 H
b1101100 g
b1101100 q
b10100010011 /
b10100010011 f
b10100010011 '"
b10100010011 O"
b10100010011 p
b110100 k"
1!
#1040000
0!
#1050000
b1010 :"
b1110000 *
b1110000 M"
b1110000 X"
b1110000 ^"
b10100010011 .
b10100010011 3"
b10100010011 U"
b10100010011 4#
b10100010011 ["
b110101 k"
1!
#1060000
0!
#1070000
b1010 =
b1010 F"
b1010 l"
b10100010011 -
b10100010011 >"
b10100010011 :#
b10100010011 @#
b110110 k"
1!
#1080000
0!
#1090000
b0 t"
b10110010011 2
b10110010011 ]
b10110010011 v
b1110000 (
b1110000 \
b1110000 w
b1110000 i"
b1110000 j"
b110111 k"
1!
#1100000
0!
#1110000
b1110100 '
b1110100 f"
b1110100 g"
b1011 #"
b1110100 1
b1110100 l
b1110100 c"
b1110100 d"
b1110000 9
b1110000 W
b1110000 _
b1110000 e
b1110000 b"
b10110010011 0
b10110010011 V
b10110010011 d
b10110010011 y
b10110010011 ^
b111000 k"
1!
#1120000
0!
#1130000
b1011 /"
b1110100 3
b1110100 k
b1110100 R"
b1110100 u
b1110000 7
b1110000 H
b1110000 g
b1110000 q
b10110010011 /
b10110010011 f
b10110010011 '"
b10110010011 O"
b10110010011 p
b111001 k"
1!
#1140000
0!
#1150000
b1011 :"
b1110100 *
b1110100 M"
b1110100 X"
b1110100 ^"
b10110010011 .
b10110010011 3"
b10110010011 U"
b10110010011 4#
b10110010011 ["
b111010 k"
1!
#1160000
0!
#1170000
b1011 =
b1011 F"
b1011 l"
b10110010011 -
b10110010011 >"
b10110010011 :#
b10110010011 @#
b111011 k"
1!
#1180000
0!
#1190000
b0 u"
b11000010011 2
b11000010011 ]
b11000010011 v
b1110100 (
b1110100 \
b1110100 w
b1110100 i"
b1110100 j"
b111100 k"
1!
#1200000
0!
#1210000
b1111000 '
b1111000 f"
b1111000 g"
b1100 #"
b1111000 1
b1111000 l
b1111000 c"
b1111000 d"
b1110100 9
b1110100 W
b1110100 _
b1110100 e
b1110100 b"
b11000010011 0
b11000010011 V
b11000010011 d
b11000010011 y
b11000010011 ^
b111101 k"
1!
#1220000
0!
#1230000
b1100 /"
b1111000 3
b1111000 k
b1111000 R"
b1111000 u
b1110100 7
b1110100 H
b1110100 g
b1110100 q
b11000010011 /
b11000010011 f
b11000010011 '"
b11000010011 O"
b11000010011 p
b111110 k"
1!
#1240000
0!
#1250000
b1100 :"
b1111000 *
b1111000 M"
b1111000 X"
b1111000 ^"
b11000010011 .
b11000010011 3"
b11000010011 U"
b11000010011 4#
b11000010011 ["
b111111 k"
1!
#1260000
0!
#1270000
b1100 =
b1100 F"
b1100 l"
b11000010011 -
b11000010011 >"
b11000010011 :#
b11000010011 @#
b1000000 k"
1!
#1280000
0!
#1290000
b0 v"
b11010010011 2
b11010010011 ]
b11010010011 v
b1111000 (
b1111000 \
b1111000 w
b1111000 i"
b1111000 j"
b1000001 k"
1!
#1300000
0!
#1310000
b1111100 '
b1111100 f"
b1111100 g"
b1101 #"
b1111100 1
b1111100 l
b1111100 c"
b1111100 d"
b1111000 9
b1111000 W
b1111000 _
b1111000 e
b1111000 b"
b11010010011 0
b11010010011 V
b11010010011 d
b11010010011 y
b11010010011 ^
b1000010 k"
1!
#1320000
0!
#1330000
b1101 /"
b1111100 3
b1111100 k
b1111100 R"
b1111100 u
b1111000 7
b1111000 H
b1111000 g
b1111000 q
b11010010011 /
b11010010011 f
b11010010011 '"
b11010010011 O"
b11010010011 p
b1000011 k"
1!
#1340000
0!
#1350000
b1101 :"
b1111100 *
b1111100 M"
b1111100 X"
b1111100 ^"
b11010010011 .
b11010010011 3"
b11010010011 U"
b11010010011 4#
b11010010011 ["
b1000100 k"
1!
#1360000
0!
#1370000
b1101 =
b1101 F"
b1101 l"
b11010010011 -
b11010010011 >"
b11010010011 :#
b11010010011 @#
b1000101 k"
1!
#1380000
0!
#1390000
b0 w"
b11100010011 2
b11100010011 ]
b11100010011 v
b1111100 (
b1111100 \
b1111100 w
b1111100 i"
b1111100 j"
b1000110 k"
1!
#1400000
0!
