section_3/cpu.vcd
$date
	Sat Jan 21 11:06:45 2023
$end
$version
	Icarus Verilog
$end
$timescale
	1ps
$end
$scope module cpuTB $end
$var reg 1 ! clk $end
$var reg 1 " reset $end
$scope module riscv $end
$var wire 1 ! clk $end
$var wire 1 " reset $end
$var wire 1 # zero $end
$var wire 32 $ wbuff [31:0] $end
$var wire 32 % rs2 [31:0] $end
$var wire 32 & rs1 [31:0] $end
$var wire 32 ' pcmux [31:0] $end
$var wire 32 ( pc [31:0] $end
$var wire 32 ) memmux [31:0] $end
$var wire 32 * mbuff3 [31:0] $end
$var wire 32 + mbuff2 [31:0] $end
$var wire 32 , mbuff1 [31:0] $end
$var wire 32 - ir4 [31:0] $end
$var wire 32 . ir3 [31:0] $end
$var wire 32 / ir2 [31:0] $end
$var wire 32 0 ir1 [31:0] $end
$var wire 32 1 incr [31:0] $end
$var wire 32 2 imem [31:0] $end
$var wire 32 3 ebuff5 [31:0] $end
$var wire 32 4 ebuff4 [31:0] $end
$var wire 32 5 ebuff3 [31:0] $end
$var wire 32 6 ebuff2 [31:0] $end
$var wire 32 7 ebuff1 [31:0] $end
$var wire 32 8 dmem [31:0] $end
$var wire 32 9 dbuff [31:0] $end
$var wire 5 : c_rs2 [4:0] $end
$var wire 5 ; c_rs1 [4:0] $end
$var wire 1 < c_regwrite $end
$var wire 5 = c_rd [4:0] $end
$var wire 7 > c_opcode [6:0] $end
$var wire 1 ? c_memwrite $end
$var wire 2 @ c_memsel [1:0] $end
$var wire 2 A c_memarea [1:0] $end
$var wire 32 B c_imm [31:0] $end
$var wire 7 C c_funct7 [6:0] $end
$var wire 3 D c_funct3 [2:0] $end
$var wire 32 E alu [31:0] $end
$scope module aluModule $end
$var wire 32 F rs2 [31:0] $end
$var wire 32 G rs1 [31:0] $end
$var wire 32 H pc [31:0] $end
$var wire 7 I opcode [6:0] $end
$var wire 32 J imm [31:0] $end
$var wire 7 K funct7 [6:0] $end
$var wire 3 L funct3 [2:0] $end
$var reg 32 M out [31:0] $end
$var reg 1 # zero $end
$upscope $end
$scope module dataMemoryModule $end
$var wire 1 ! clk $end
$var wire 1 ? write $end
$var wire 32 N dataout [31:0] $end
$var wire 32 O datain [31:0] $end
$var wire 2 P area [1:0] $end
$var wire 32 Q address [31:0] $end
$upscope $end
$scope module decodeBufferModule $end
$var wire 1 ! clk $end
$var wire 32 R in2 [31:0] $end
$var wire 32 S in3 [31:0] $end
$var wire 32 T in4 [31:0] $end
$var wire 32 U in5 [31:0] $end
$var wire 32 V in6 [31:0] $end
$var wire 32 W out0 [31:0] $end
$var wire 32 X out1 [31:0] $end
$var wire 32 Y out2 [31:0] $end
$var wire 32 Z out3 [31:0] $end
$var wire 32 [ out4 [31:0] $end
$var wire 32 \ out5 [31:0] $end
$var wire 32 ] out6 [31:0] $end
$var wire 32 ^ in1 [31:0] $end
$var wire 32 _ in0 [31:0] $end
$var reg 32 ` buffer0 [31:0] $end
$var reg 32 a buffer1 [31:0] $end
$var reg 32 b buffer2 [31:0] $end
$var reg 32 c buffer3 [31:0] $end
$var reg 32 d buffer4 [31:0] $end
$var reg 32 e buffer5 [31:0] $end
$var reg 32 f buffer6 [31:0] $end
$upscope $end
$scope module executeBufferModule $end
$var wire 1 ! clk $end
$var wire 32 g in0 [31:0] $end
$var wire 32 h in1 [31:0] $end
$var wire 32 i in6 [31:0] $end
$var wire 32 j out0 [31:0] $end
$var wire 32 k out1 [31:0] $end
$var wire 32 l out2 [31:0] $end
$var wire 32 m out3 [31:0] $end
$var wire 32 n out4 [31:0] $end
$var wire 32 o out5 [31:0] $end
$var wire 32 p out6 [31:0] $end
$var wire 32 q in5 [31:0] $end
$var wire 32 r in4 [31:0] $end
$var wire 32 s in3 [31:0] $end
$var wire 32 t in2 [31:0] $end
$var reg 32 u buffer0 [31:0] $end
$var reg 32 v buffer1 [31:0] $end
$var reg 32 w buffer2 [31:0] $end
$var reg 32 x buffer3 [31:0] $end
$var reg 32 y buffer4 [31:0] $end
$var reg 32 z buffer5 [31:0] $end
$var reg 32 { buffer6 [31:0] $end
$upscope $end
$scope module instructionMemoryModule $end
$var wire 32 | instruction [31:0] $end
$var wire 32 } address [31:0] $end
$var integer 32 ~ i [31:0] $end
$upscope $end
$scope module ir1ControlModule $end
$var wire 32 !" ins [31:0] $end
$var reg 3 "" funct3 [2:0] $end
$var reg 7 #" funct7 [6:0] $end
$var reg 32 $" imm [31:0] $end
$var reg 2 %" memarea [1:0] $end
$var reg 2 &" memsel [1:0] $end
$var reg 1 '" memwrite $end
$var reg 7 (" opcode [6:0] $end
$var reg 5 )" rd [4:0] $end
$var reg 1 *" regwrite $end
$var reg 5 +" rs1 [4:0] $end
$var reg 5 ," rs2 [4:0] $end
$upscope $end
$scope module ir2ControlModule $end
$var wire 32 -" ins [31:0] $end
$var reg 3 ." funct3 [2:0] $end
$var reg 7 /" funct7 [6:0] $end
$var reg 32 0" imm [31:0] $end
$var reg 2 1" memarea [1:0] $end
$var reg 2 2" memsel [1:0] $end
$var reg 1 3" memwrite $end
$var reg 7 4" opcode [6:0] $end
$var reg 5 5" rd [4:0] $end
$var reg 1 6" regwrite $end
$var reg 5 7" rs1 [4:0] $end
$var reg 5 8" rs2 [4:0] $end
$upscope $end
$scope module ir3ControlModule $end
$var wire 32 9" ins [31:0] $end
$var reg 3 :" funct3 [2:0] $end
$var reg 7 ;" funct7 [6:0] $end
$var reg 32 <" imm [31:0] $end
$var reg 2 =" memarea [1:0] $end
$var reg 2 >" memsel [1:0] $end
$var reg 1 ? memwrite $end
$var reg 7 ?" opcode [6:0] $end
$var reg 5 @" rd [4:0] $end
$var reg 1 A" regwrite $end
$var reg 5 B" rs1 [4:0] $end
$var reg 5 C" rs2 [4:0] $end
$upscope $end
$scope module ir4ControlModule $end
$var wire 32 D" ins [31:0] $end
$var reg 3 E" funct3 [2:0] $end
$var reg 7 F" funct7 [6:0] $end
$var reg 32 G" imm [31:0] $end
$var reg 2 H" memarea [1:0] $end
$var reg 2 I" memsel [1:0] $end
$var reg 1 J" memwrite $end
$var reg 7 K" opcode [6:0] $end
$var reg 5 L" rd [4:0] $end
$var reg 1 < regwrite $end
$var reg 5 M" rs1 [4:0] $end
$var reg 5 N" rs2 [4:0] $end
$upscope $end
$scope module memMultiplexerModule $end
$var wire 32 O" in2 [31:0] $end
$var wire 32 P" in4 [31:0] $end
$var wire 2 Q" sel [1:0] $end
$var wire 32 R" in3 [31:0] $end
$var wire 32 S" in1 [31:0] $end
$var reg 32 T" out [31:0] $end
$upscope $end
$scope module memoryBufferModule $end
$var wire 1 ! clk $end
$var wire 32 U" in0 [31:0] $end
$var wire 32 V" in1 [31:0] $end
$var wire 32 W" in2 [31:0] $end
$var wire 32 X" in3 [31:0] $end
$var wire 32 Y" in4 [31:0] $end
$var wire 32 Z" in5 [31:0] $end
$var wire 32 [" in6 [31:0] $end
$var wire 32 \" out0 [31:0] $end
$var wire 32 ]" out1 [31:0] $end
$var wire 32 ^" out2 [31:0] $end
$var wire 32 _" out3 [31:0] $end
$var wire 32 `" out4 [31:0] $end
$var wire 32 a" out5 [31:0] $end
$var wire 32 b" out6 [31:0] $end
$var reg 32 c" buffer0 [31:0] $end
$var reg 32 d" buffer1 [31:0] $end
$var reg 32 e" buffer2 [31:0] $end
$var reg 32 f" buffer3 [31:0] $end
$var reg 32 g" buffer4 [31:0] $end
$var reg 32 h" buffer5 [31:0] $end
$var reg 32 i" buffer6 [31:0] $end
$upscope $end
$scope module pcIncrementModule $end
$var wire 32 j" in1 [31:0] $end
$var wire 32 k" in2 [31:0] $end
$var wire 32 l" out [31:0] $end
$upscope $end
$scope module pcMultiplexerModule $end
$var wire 32 m" in1 [31:0] $end
$var wire 32 n" in2 [31:0] $end
$var wire 1 # sel $end
$var reg 32 o" out [31:0] $end
$upscope $end
$scope module pcRegisterModule $end
$var wire 1 ! clk $end
$var wire 32 p" in [31:0] $end
$var wire 1 q" reset $end
$var wire 32 r" out [31:0] $end
$var reg 32 s" pc [31:0] $end
$var integer 32 t" i [31:0] $end
$upscope $end
$scope module registerBankModule $end
$var wire 1 ! clk $end
$var wire 5 u" rdaddr [4:0] $end
$var wire 1 < regwrite $end
$var wire 32 v" rs1 [31:0] $end
$var wire 5 w" rs1addr [4:0] $end
$var wire 32 x" rs2 [31:0] $end
$var wire 5 y" rs2addr [4:0] $end
$var wire 32 z" rddata [31:0] $end
$var reg 32 {" reg0 [31:0] $end
$var reg 32 |" reg1 [31:0] $end
$var reg 32 }" reg10 [31:0] $end
$var reg 32 ~" reg11 [31:0] $end
$var reg 32 !# reg12 [31:0] $end
$var reg 32 "# reg13 [31:0] $end
$var reg 32 ## reg14 [31:0] $end
$var reg 32 $# reg15 [31:0] $end
$var reg 32 %# reg16 [31:0] $end
$var reg 32 &# reg17 [31:0] $end
$var reg 32 '# reg18 [31:0] $end
$var reg 32 (# reg19 [31:0] $end
$var reg 32 )# reg2 [31:0] $end
$var reg 32 *# reg20 [31:0] $end
$var reg 32 +# reg21 [31:0] $end
$var reg 32 ,# reg22 [31:0] $end
$var reg 32 -# reg23 [31:0] $end
$var reg 32 .# reg24 [31:0] $end
$var reg 32 /# reg25 [31:0] $end
$var reg 32 0# reg26 [31:0] $end
$var reg 32 1# reg27 [31:0] $end
$var reg 32 2# reg28 [31:0] $end
$var reg 32 3# reg29 [31:0] $end
$var reg 32 4# reg3 [31:0] $end
$var reg 32 5# reg30 [31:0] $end
$var reg 32 6# reg31 [31:0] $end
$var reg 32 7# reg4 [31:0] $end
$var reg 32 8# reg5 [31:0] $end
$var reg 32 9# reg6 [31:0] $end
$var reg 32 :# reg7 [31:0] $end
$var reg 32 ;# reg8 [31:0] $end
$var reg 32 <# reg9 [31:0] $end
$upscope $end
$scope module writebackBufferModule $end
$var wire 1 ! clk $end
$var wire 32 =# in0 [31:0] $end
$var wire 32 ># in1 [31:0] $end
$var wire 32 ?# in2 [31:0] $end
$var wire 32 @# in3 [31:0] $end
$var wire 32 A# in4 [31:0] $end
$var wire 32 B# in5 [31:0] $end
$var wire 32 C# in6 [31:0] $end
$var wire 32 D# out0 [31:0] $end
$var wire 32 E# out1 [31:0] $end
$var wire 32 F# out2 [31:0] $end
$var wire 32 G# out3 [31:0] $end
$var wire 32 H# out4 [31:0] $end
$var wire 32 I# out5 [31:0] $end
$var wire 32 J# out6 [31:0] $end
$var reg 32 K# buffer0 [31:0] $end
$var reg 32 L# buffer1 [31:0] $end
$var reg 32 M# buffer2 [31:0] $end
$var reg 32 N# buffer3 [31:0] $end
$var reg 32 O# buffer4 [31:0] $end
$var reg 32 P# buffer5 [31:0] $end
$var reg 32 Q# buffer6 [31:0] $end
$upscope $end
$upscope $end
$upscope $end
$enddefinitions $end
#0
$dumpvars
bx Q#
bx P#
bx O#
bx N#
bx M#
bx L#
bx K#
bx J#
bx I#
bx H#
bx G#
bx F#
bx E#
bx D#
bz C#
bz B#
bz A#
bz @#
bz ?#
bx >#
bx =#
bx <#
bx ;#
bx :#
bx 9#
bx 8#
bx 7#
bx 6#
bx 5#
bx 4#
bx 3#
bx 2#
bx 1#
bx 0#
bx /#
bx .#
bx -#
bx ,#
bx +#
bx *#
bx )#
bx (#
bx '#
bx &#
bx %#
bx $#
bx ##
bx "#
bx !#
bx ~"
bx }"
bx |"
b0 {"
bx z"
bx y"
bx x"
bx w"
bx v"
bx u"
b0 t"
b0 s"
b0 r"
zq"
bx p"
bx o"
bx n"
bx m"
bx l"
bx k"
b100 j"
bx i"
bx h"
bx g"
bx f"
bx e"
bx d"
bx c"
bx b"
bx a"
bx `"
bx _"
bx ^"
bx ]"
bx \"
bz ["
bz Z"
bz Y"
bx X"
bx W"
bx V"
bx U"
bx T"
bx S"
bx R"
bx Q"
bz P"
b0x O"
bx N"
bx M"
bx L"
bx K"
xJ"
bx I"
bx H"
bx G"
bx F"
bx E"
bx D"
bx C"
bx B"
xA"
bx @"
bx ?"
bx >"
bx ="
bx <"
bx ;"
bx :"
bx 9"
bx 8"
bx 7"
x6"
bx 5"
bx 4"
x3"
bx 2"
bx 1"
bx 0"
bx /"
bx ."
bx -"
bx ,"
bx +"
x*"
bx )"
bx ("
x'"
bx &"
bx %"
bx $"
bx #"
bx ""
bx !"
b1000000000 ~
b0 }
b100100000000000000001101111 |
bx {
bx z
bx y
bx x
bx w
bx v
bx u
bx t
bx s
bx r
bx q
bx p
bx o
bx n
bx m
bx l
bx k
bx j
bz i
bx h
bx g
bx f
bx e
bx d
bx c
bx b
bx a
bx `
b100100000000000000001101111 _
b0 ^
bx ]
bx \
bx [
bx Z
bx Y
bx X
bx W
bz V
bz U
bz T
bz S
bz R
bx Q
bx P
bx O
b0x N
bx M
bx L
bx K
bx J
bx I
bx H
bx G
bx F
bx E
bx D
bx C
bx B
bx A
bx @
x?
bx >
bx =
x<
bx ;
bx :
bx 9
b0x 8
bx 7
bx 6
bx 5
bx 4
bx 3
b100100000000000000001101111 2
bx 1
bx 0
bx /
bx .
bx -
bx ,
bx +
bx *
bx )
b0 (
bx '
bx &
bx %
bx $
x#
1"
0!
$end
#10000
b0 )"
1*"
b0 &"
bz %"
0'"
b1001000 B
b1001000 r
b1001000 $"
bz :
bz ,"
bz y"
bz ;
bz +"
bz w"
b10 #"
bz ""
b1101111 ("
bz ]
bz f
bz \
bz e
bz [
bz d
bz Z
bz c
bz Y
bz b
b100 1
b100 q
b100 l"
b100 m"
b0 9
b0 X
b0 a
b0 h
b0 k"
b100100000000000000001101111 0
b100100000000000000001101111 W
b100100000000000000001101111 g
b100100000000000000001101111 !"
b100100000000000000001101111 `
bz p
bz {
bz b"
bz i"
bz a"
bz h"
bz `"
bz g"
bz J#
bz Q#
bz I#
bz P#
bz H#
bz O#
bz G#
bz N#
bz F#
bz M#
b1 t"
1!
#20000
0!
0"
#30000
b1001000 '
b1001000 o"
b1001000 p"
b1001000 E
b1001000 M
b1001000 V"
b1001000 n"
1#
b0 5"
16"
b0 2"
bz 1"
03"
b1001000 0"
bz 8"
bz 7"
b10 C
b10 K
b10 /"
bz D
bz L
bz ."
b1101111 >
b1101111 I
b1101111 4"
b100 3
b100 o
b100 X"
b100 z
b1001000 4
b1001000 J
b1001000 n
b1001000 y
b0 7
b0 H
b0 k
b0 v
b100100000000000000001101111 /
b100100000000000000001101111 j
b100100000000000000001101111 -"
b100100000000000000001101111 U"
b100100000000000000001101111 u
b10 t"
1!
#40000
0!
#50000
b100 )
b100 T"
b100 >#
b0 @"
1A"
b0 @
b0 >"
b0 Q"
bz A
bz P
bz ="
0?
b1001000 <"
bz C"
bz B"
b10 ;"
bz :"
b1101111 ?"
b100 *
b100 S"
b100 _"
b100 f"
b1001000 ,
b1001000 Q
b1001000 R"
b1001000 ]"
b1001000 d"
b100100000000000000001101111 .
b100100000000000000001101111 9"
b100100000000000000001101111 \"
b100100000000000000001101111 =#
b100100000000000000001101111 c"
b11 t"
1!
#60000
0!
#70000
b0 =
b0 L"
b0 u"
1<
b0 I"
bz H"
0J"
b1001000 G"
bz N"
bz M"
b10 F"
bz E"
b1101111 K"
b100 $
b100 z"
b100 E#
b100 L#
b100100000000000000001101111 -
b100100000000000000001101111 D"
b100100000000000000001101111 D#
b100100000000000000001101111 K#
b100 t"
1!
#80000
0!
#90000
b10010011 2
b10010011 _
b10010011 |
b1001000 (
b1001000 ^
b1001000 }
b1001000 r"
b1001000 s"
b101 t"
1!
#100000
0!
#110000
b1 )"
b10 &"
b0 B
b0 r
b0 $"
b0 &
b0 t
b0 v"
b0 ;
b0 +"
b0 w"
b0 #"
b0 ""
b10011 ("
b1001100 1
b1001100 q
b1001100 l"
b1001100 m"
b1001000 9
b1001000 X
b1001000 a
b1001000 h
b1001000 k"
b10010011 0
b10010011 W
b10010011 g
b10010011 !"
b10010011 `
b110 t"
1!
#120000
0!
#130000
b1001100 '
b1001100 o"
b1001100 p"
b0 E
b0 M
b0 V"
b0 n"
0#
b1 5"
b10 2"
b0 0"
b0 7"
b0 C
b0 K
b0 /"
b0 D
b0 L
b0 ."
b10011 >
b10011 I
b10011 4"
b1001100 3
b1001100 o
b1001100 X"
b1001100 z
b0 4
b0 J
b0 n
b0 y
b0 6
b0 G
b0 l
b0 w
b1001000 7
b1001000 H
b1001000 k
b1001000 v
b10010011 /
b10010011 j
b10010011 -"
b10010011 U"
b10010011 u
b111 t"
1!
#140000
0!
#150000
b0 )
b0 T"
b0 >#
b1 @"
b10 @
b10 >"
b10 Q"
b0 <"
b0 B"
b0 ;"
b0 :"
b10011 ?"
b1001100 *
b1001100 S"
b1001100 _"
b1001100 f"
b0 ,
b0 Q
b0 R"
b0 ]"
b0 d"
b10010011 .
b10010011 9"
b10010011 \"
b10010011 =#
b10010011 c"
b1000 t"
1!
#160000
0!
#170000
b1 =
b1 L"
b1 u"
b10 I"
b0 G"
b0 M"
b0 F"
b0 E"
b10011 K"
b0 $
b0 z"
b0 E#
b0 L#
b10010011 -
b10010011 D"
b10010011 D#
b10010011 K#
b1001 t"
1!
#180000
0!
#190000
b0 |"
b100010011 2
b100010011 _
b100010011 |
b1001100 (
b1001100 ^
b1001100 }
b1001100 r"
b1001100 s"
b1010 t"
1!
#200000
0!
#210000
b1010000 '
b1010000 o"
b1010000 p"
b10 )"
b1010000 1
b1010000 q
b1010000 l"
b1010000 m"
b1001100 9
b1001100 X
b1001100 a
b1001100 h
b1001100 k"
b100010011 0
b100010011 W
b100010011 g
b100010011 !"
b100010011 `
b1011 t"
1!
#220000
0!
#230000
b10 5"
b1010000 3
b1010000 o
b1010000 X"
b1010000 z
b1001100 7
b1001100 H
b1001100 k
b1001100 v
b100010011 /
b100010011 j
b100010011 -"
b100010011 U"
b100010011 u
b1100 t"
1!
#240000
0!
#250000
b10 @"
b1010000 *
b1010000 S"
b1010000 _"
b1010000 f"
b100010011 .
b100010011 9"
b100010011 \"
b100010011 =#
b100010011 c"
b1101 t"
1!
#260000
0!
#270000
b10 =
b10 L"
b10 u"
b100010011 -
b100010011 D"
b100010011 D#
b100010011 K#
b1110 t"
1!
#280000
0!
#290000
b0 )#
b110010011 2
b110010011 _
b110010011 |
b1010000 (
b1010000 ^
b1010000 }
b1010000 r"
b1010000 s"
b1111 t"
1!
#300000
0!
#310000
b1010100 '
b1010100 o"
b1010100 p"
b11 )"
b1010100 1
b1010100 q
b1010100 l"
b1010100 m"
b1010000 9
b1010000 X
b1010000 a
b1010000 h
b1010000 k"
b110010011 0
b110010011 W
b110010011 g
b110010011 !"
b110010011 `
b10000 t"
1!
#320000
0!
#330000
b11 5"
b1010100 3
b1010100 o
b1010100 X"
b1010100 z
b1010000 7
b1010000 H
b1010000 k
b1010000 v
b110010011 /
b110010011 j
b110010011 -"
b110010011 U"
b110010011 u
b10001 t"
1!
#340000
0!
#350000
b11 @"
b1010100 *
b1010100 S"
b1010100 _"
b1010100 f"
b110010011 .
b110010011 9"
b110010011 \"
b110010011 =#
b110010011 c"
b10010 t"
1!
#360000
0!
#370000
b11 =
b11 L"
b11 u"
b110010011 -
b110010011 D"
b110010011 D#
b110010011 K#
b10011 t"
1!
#380000
0!
#390000
b0 4#
b1000010011 2
b1000010011 _
b1000010011 |
b1010100 (
b1010100 ^
b1010100 }
b1010100 r"
b1010100 s"
b10100 t"
1!
#400000
0!
#410000
b1011000 '
b1011000 o"
b1011000 p"
b100 )"
b1011000 1
b1011000 q
b1011000 l"
b1011000 m"
b1010100 9
b1010100 X
b1010100 a
b1010100 h
b1010100 k"
b1000010011 0
b1000010011 W
b1000010011 g
b1000010011 !"
b1000010011 `
b10101 t"
1!
#420000
0!
#430000
b100 5"
b1011000 3
b1011000 o
b1011000 X"
b1011000 z
b1010100 7
b1010100 H
b1010100 k
b1010100 v
b1000010011 /
b1000010011 j
b1000010011 -"
b1000010011 U"
b1000010011 u
b10110 t"
1!
#440000
0!
#450000
b100 @"
b1011000 *
b1011000 S"
b1011000 _"
b1011000 f"
b1000010011 .
b1000010011 9"
b1000010011 \"
b1000010011 =#
b1000010011 c"
b10111 t"
1!
#460000
0!
#470000
b100 =
b100 L"
b100 u"
b1000010011 -
b1000010011 D"
b1000010011 D#
b1000010011 K#
b11000 t"
1!
#480000
0!
#490000
b0 7#
b1010010011 2
b1010010011 _
b1010010011 |
b1011000 (
b1011000 ^
b1011000 }
b1011000 r"
b1011000 s"
b11001 t"
1!
#500000
0!
#510000
b1011100 '
b1011100 o"
b1011100 p"
b101 )"
b1011100 1
b1011100 q
b1011100 l"
b1011100 m"
b1011000 9
b1011000 X
b1011000 a
b1011000 h
b1011000 k"
b1010010011 0
b1010010011 W
b1010010011 g
b1010010011 !"
b1010010011 `
b11010 t"
1!
#520000
0!
#530000
b101 5"
b1011100 3
b1011100 o
b1011100 X"
b1011100 z
b1011000 7
b1011000 H
b1011000 k
b1011000 v
b1010010011 /
b1010010011 j
b1010010011 -"
b1010010011 U"
b1010010011 u
b11011 t"
1!
#540000
0!
#550000
b101 @"
b1011100 *
b1011100 S"
b1011100 _"
b1011100 f"
b1010010011 .
b1010010011 9"
b1010010011 \"
b1010010011 =#
b1010010011 c"
b11100 t"
1!
#560000
0!
#570000
b101 =
b101 L"
b101 u"
b1010010011 -
b1010010011 D"
b1010010011 D#
b1010010011 K#
b11101 t"
1!
#580000
0!
#590000
b0 8#
b1100010011 2
b1100010011 _
b1100010011 |
b1011100 (
b1011100 ^
b1011100 }
b1011100 r"
b1011100 s"
b11110 t"
1!
#600000
0!
#610000
b1100000 '
b1100000 o"
b1100000 p"
b110 )"
b1100000 1
b1100000 q
b1100000 l"
b1100000 m"
b1011100 9
b1011100 X
b1011100 a
b1011100 h
b1011100 k"
b1100010011 0
b1100010011 W
b1100010011 g
b1100010011 !"
b1100010011 `
b11111 t"
1!
#620000
0!
#630000
b110 5"
b1100000 3
b1100000 o
b1100000 X"
b1100000 z
b1011100 7
b1011100 H
b1011100 k
b1011100 v
b1100010011 /
b1100010011 j
b1100010011 -"
b1100010011 U"
b1100010011 u
b100000 t"
1!
#640000
0!
#650000
b110 @"
b1100000 *
b1100000 S"
b1100000 _"
b1100000 f"
b1100010011 .
b1100010011 9"
b1100010011 \"
b1100010011 =#
b1100010011 c"
b100001 t"
1!
#660000
0!
#670000
b110 =
b110 L"
b110 u"
b1100010011 -
b1100010011 D"
b1100010011 D#
b1100010011 K#
b100010 t"
1!
#680000
0!
#690000
b0 9#
b1110010011 2
b1110010011 _
b1110010011 |
b1100000 (
b1100000 ^
b1100000 }
b1100000 r"
b1100000 s"
b100011 t"
1!
#700000
0!
#710000
b1100100 '
b1100100 o"
b1100100 p"
b111 )"
b1100100 1
b1100100 q
b1100100 l"
b1100100 m"
b1100000 9
b1100000 X
b1100000 a
b1100000 h
b1100000 k"
b1110010011 0
b1110010011 W
b1110010011 g
b1110010011 !"
b1110010011 `
b100100 t"
1!
#720000
0!
#730000
b111 5"
b1100100 3
b1100100 o
b1100100 X"
b1100100 z
b1100000 7
b1100000 H
b1100000 k
b1100000 v
b1110010011 /
b1110010011 j
b1110010011 -"
b1110010011 U"
b1110010011 u
b100101 t"
1!
#740000
0!
#750000
b111 @"
b1100100 *
b1100100 S"
b1100100 _"
b1100100 f"
b1110010011 .
b1110010011 9"
b1110010011 \"
b1110010011 =#
b1110010011 c"
b100110 t"
1!
#760000
0!
#770000
b111 =
b111 L"
b111 u"
b1110010011 -
b1110010011 D"
b1110010011 D#
b1110010011 K#
b100111 t"
1!
#780000
0!
#790000
b0 :#
b10000010011 2
b10000010011 _
b10000010011 |
b1100100 (
b1100100 ^
b1100100 }
b1100100 r"
b1100100 s"
b101000 t"
1!
#800000
0!
#810000
b1101000 '
b1101000 o"
b1101000 p"
b1000 )"
b1101000 1
b1101000 q
b1101000 l"
b1101000 m"
b1100100 9
b1100100 X
b1100100 a
b1100100 h
b1100100 k"
b10000010011 0
b10000010011 W
b10000010011 g
b10000010011 !"
b10000010011 `
b101001 t"
1!
#820000
0!
#830000
b1000 5"
b1101000 3
b1101000 o
b1101000 X"
b1101000 z
b1100100 7
b1100100 H
b1100100 k
b1100100 v
b10000010011 /
b10000010011 j
b10000010011 -"
b10000010011 U"
b10000010011 u
b101010 t"
1!
#840000
0!
#850000
b1000 @"
b1101000 *
b1101000 S"
b1101000 _"
b1101000 f"
b10000010011 .
b10000010011 9"
b10000010011 \"
b10000010011 =#
b10000010011 c"
b101011 t"
1!
#860000
0!
#870000
b1000 =
b1000 L"
b1000 u"
b10000010011 -
b10000010011 D"
b10000010011 D#
b10000010011 K#
b101100 t"
1!
#880000
0!
#890000
b0 ;#
b10010010011 2
b10010010011 _
b10010010011 |
b1101000 (
b1101000 ^
b1101000 }
b1101000 r"
b1101000 s"
b101101 t"
1!
#900000
0!
#910000
b1101100 '
b1101100 o"
b1101100 p"
b1001 )"
b1101100 1
b1101100 q
b1101100 l"
b1101100 m"
b1101000 9
b1101000 X
b1101000 a
b1101000 h
b1101000 k"
b10010010011 0
b10010010011 W
b10010010011 g
b10010010011 !"
b10010010011 `
b101110 t"
1!
#920000
0!
#930000
b1001 5"
b1101100 3
b1101100 o
b1101100 X"
b1101100 z
b1101000 7
b1101000 H
b1101000 k
b1101000 v
b10010010011 /
b10010010011 j
b10010010011 -"
b10010010011 U"
b10010010011 u
b101111 t"
1!
#940000
0!
#950000
b1001 @"
b1101100 *
b1101100 S"
b1101100 _"
b1101100 f"
b10010010011 .
b10010010011 9"
b10010010011 \"
b10010010011 =#
b10010010011 c"
b110000 t"
1!
#960000
0!
#970000
b1001 =
b1001 L"
b1001 u"
b10010010011 -
b10010010011 D"
b10010010011 D#
b10010010011 K#
b110001 t"
1!
#980000
0!
#990000
b0 <#
b10100010011 2
b10100010011 _
b10100010011 |
b1101100 (
b1101100 ^
b1101100 }
b1101100 r"
b1101100 s"
b110010 t"
1!
#1000000
0!
#1010000
b1110000 '
b1110000 o"
b1110000 p"
b1010 )"
b1110000 1
b1110000 q
b1110000 l"
b1110000 m"
b1101100 9
b1101100 X
b1101100 a
b1101100 h
b1101100 k"
b10100010011 0
b10100010011 W
b10100010011 g
b10100010011 !"
b10100010011 `
b110011 t"
1!
#1020000
0!
#1030000
b1010 5"
b1110000 3
b1110000 o
b1110000 X"
b1110000 z
b1101100 7
b1101100 H
b1101100 k
b1101100 v
b10100010011 /
b10100010011 j
b10100010011 -"
b10100010011 U"
b10100010011 u
b110100 t"
1!
#1040000
0!
#1050000
b1010 @"
b1110000 *
b1110000 S"
b1110000 _"
b1110000 f"
b10100010011 .
b10100010011 9"
b10100010011 \"
b10100010011 =#
b10100010011 c"
b110101 t"
1!
#1060000
0!
#1070000
b1010 =
b1010 L"
b1010 u"
b10100010011 -
b10100010011 D"
b10100010011 D#
b10100010011 K#
b110110 t"
1!
#1080000
0!
#1090000
b0 }"
b10110010011 2
b10110010011 _
b10110010011 |
b1110000 (
b1110000 ^
b1110000 }
b1110000 r"
b1110000 s"
b110111 t"
1!
#1100000
0!
#1110000
b1110100 '
b1110100 o"
b1110100 p"
b1011 )"
b1110100 1
b1110100 q
b1110100 l"
b1110100 m"
b1110000 9
b1110000 X
b1110000 a
b1110000 h
b1110000 k"
b10110010011 0
b10110010011 W
b10110010011 g
b10110010011 !"
b10110010011 `
b111000 t"
1!
#1120000
0!
#1130000
b1011 5"
b1110100 3
b1110100 o
b1110100 X"
b1110100 z
b1110000 7
b1110000 H
b1110000 k
b1110000 v
b10110010011 /
b10110010011 j
b10110010011 -"
b10110010011 U"
b10110010011 u
b111001 t"
1!
#1140000
0!
#1150000
b1011 @"
b1110100 *
b1110100 S"
b1110100 _"
b1110100 f"
b10110010011 .
b10110010011 9"
b10110010011 \"
b10110010011 =#
b10110010011 c"
b111010 t"
1!
#1160000
0!
#1170000
b1011 =
b1011 L"
b1011 u"
b10110010011 -
b10110010011 D"
b10110010011 D#
b10110010011 K#
b111011 t"
1!
#1180000
0!
#1190000
b0 ~"
b11000010011 2
b11000010011 _
b11000010011 |
b1110100 (
b1110100 ^
b1110100 }
b1110100 r"
b1110100 s"
b111100 t"
1!
#1200000
0!
#1210000
b1111000 '
b1111000 o"
b1111000 p"
b1100 )"
b1111000 1
b1111000 q
b1111000 l"
b1111000 m"
b1110100 9
b1110100 X
b1110100 a
b1110100 h
b1110100 k"
b11000010011 0
b11000010011 W
b11000010011 g
b11000010011 !"
b11000010011 `
b111101 t"
1!
#1220000
0!
#1230000
b1100 5"
b1111000 3
b1111000 o
b1111000 X"
b1111000 z
b1110100 7
b1110100 H
b1110100 k
b1110100 v
b11000010011 /
b11000010011 j
b11000010011 -"
b11000010011 U"
b11000010011 u
b111110 t"
1!
#1240000
0!
#1250000
b1100 @"
b1111000 *
b1111000 S"
b1111000 _"
b1111000 f"
b11000010011 .
b11000010011 9"
b11000010011 \"
b11000010011 =#
b11000010011 c"
b111111 t"
1!
#1260000
0!
#1270000
b1100 =
b1100 L"
b1100 u"
b11000010011 -
b11000010011 D"
b11000010011 D#
b11000010011 K#
b1000000 t"
1!
#1280000
0!
#1290000
b0 !#
b11010010011 2
b11010010011 _
b11010010011 |
b1111000 (
b1111000 ^
b1111000 }
b1111000 r"
b1111000 s"
b1000001 t"
1!
#1300000
0!
#1310000
b1111100 '
b1111100 o"
b1111100 p"
b1101 )"
b1111100 1
b1111100 q
b1111100 l"
b1111100 m"
b1111000 9
b1111000 X
b1111000 a
b1111000 h
b1111000 k"
b11010010011 0
b11010010011 W
b11010010011 g
b11010010011 !"
b11010010011 `
b1000010 t"
1!
#1320000
0!
